,Unnamed: 0,name,addresslines,hours_open_per_week,gc_status_rel,has_lu,has_cl,has_wa,has_vs,zipcode,storenumber,revenue,lat,lng,geometry,aerports_50,aerports_100,aerports_250,aerports_500,aerports_750,aerports_1000,hostelry_50,hostelry_100,hostelry_250,hostelry_500,hostelry_750,hostelry_1000,schools_50,schools_100,schools_250,schools_500,schools_750,schools_1000,banks_50,banks_100,banks_250,banks_500,banks_750,banks_1000,sanity_50,sanity_100,sanity_250,sanity_500,sanity_750,sanity_1000,spectacles_50,spectacles_100,spectacles_250,spectacles_500,spectacles_750,spectacles_1000,police_stations_50,police_stations_100,police_stations_250,police_stations_500,police_stations_750,police_stations_1000,temples_50,temples_100,temples_250,temples_500,temples_750,temples_1000,stadiums_50,stadiums_100,stadiums_250,stadiums_500,stadiums_750,stadiums_1000,stations_50,stations_100,stations_250,stations_500,stations_750,stations_1000,malls_50,malls_100,malls_250,malls_500,malls_750,malls_1000,fashion_shops_50,fashion_shops_100,fashion_shops_250,fashion_shops_500,fashion_shops_750,fashion_shops_1000,parks_50,parks_100,parks_250,parks_500,parks_750,parks_1000,gyms_50,gyms_100,gyms_250,gyms_500,gyms_750,gyms_1000,hotels_50,hotels_100,hotels_250,hotels_500,hotels_750,hotels_1000,attractions_50,attractions_100,attractions_250,attractions_500,attractions_750,attractions_1000
0,0,7000 Austin Street,"7000 Austin Street,Forest Hills, NY 11375",108.0,0.97,1,1,1,1,11375,7217-623,1016898.4125579556,40.720983000000004,-73.84734,POINT (-73.8473 40.721),0,0,0,0,0,0,1,2,10,15,21,28,0,0,0,2,3,4,0,0,1,4,6,6,0,0,0,4,5,7,0,0,1,2,2,2,0,0,0,1,1,1,0,0,0,0,0,0,0,0,0,2,2,3,0,0,1,2,2,4,1,1,1,1,1,1,1,1,4,4,4,4,0,0,1,2,6,12,1,1,3,3,3,4,0,0,0,0,0,0,0,0,0,0,0,0
1,1,107-12 Continental Avenue,"107-12 Continental Avenue,Forest Hills, NY 11375",116.5,0.95,1,0,1,0,11375,7349-910,447064.6235344879,40.720414,-73.84445600000001,POINT (-73.8445 40.7204),0,0,0,0,0,0,2,4,12,14,18,23,0,0,1,1,3,6,1,2,3,3,4,6,1,2,2,3,4,5,0,0,1,2,2,2,0,0,0,0,1,1,0,0,0,0,0,0,0,0,0,2,2,2,0,1,2,2,3,3,0,0,1,1,1,1,0,2,3,4,4,4,0,0,0,2,10,12,0,0,2,3,3,3,0,0,0,0,0,0,0,0,0,0,0,0
2,2,Stop & Shop-Forest Hills #539,"8989 Union Turnpike,Forest Hills, NY 11375",112.0,0.97,0,0,1,0,11375,73708-104729,702807.074005489,40.7070385,-73.8545911,POINT (-73.8546 40.707),0,0,0,0,0,0,0,0,0,4,10,12,0,0,3,3,4,5,0,0,0,0,2,2,0,0,0,0,0,0,0,0,0,0,1,1,0,0,0,0,0,0,0,0,0,0,0,0,0,0,0,0,0,0,0,0,0,0,0,0,0,0,0,0,0,0,0,0,0,0,0,0,0,0,0,1,2,4,0,1,1,1,1,1,0,0,0,0,0,0,0,0,0,0,0,1
3,3,Queens Blvd & 67th Rd,"10102 Queens Blvd.,Forest Hills, NY 11375",114.5,0.97,1,0,1,1,11375,7897-82740,283190.753428042,40.726288000000004,-73.85275399999998,POINT (-73.8528 40.7263),0,0,0,0,0,0,1,5,9,11,17,46,0,0,0,1,3,7,0,0,2,3,6,14,0,0,2,5,5,14,0,0,0,0,0,1,0,0,0,1,1,1,0,0,0,0,0,0,0,0,0,0,0,3,0,1,1,1,1,4,0,0,0,0,0,3,0,0,0,0,1,6,0,1,1,5,7,12,0,0,1,2,3,5,0,0,0,0,0,0,0,0,0,0,0,0
4,4,118-24 Queens Blvd,"118-24 Queens Blvd,Kew Gardens, NY 11415",114.0,0.95,1,0,1,1,11415,11933-106885,367299.3768412837,40.714428000000005,-73.83193100000001,POINT (-73.8319 40.7144),0,0,0,0,0,0,2,3,4,4,16,21,0,0,0,1,4,6,0,0,0,0,1,2,0,0,1,1,2,2,0,0,0,0,1,1,0,0,0,0,0,0,0,0,0,0,0,0,0,0,0,0,0,0,0,2,2,2,4,4,0,0,0,0,0,0,0,0,0,0,0,0,0,0,0,2,7,10,0,0,0,0,0,0,0,0,0,0,0,0,0,0,0,0,0,0
5,5,Shops at Atlas Park,"8000 Cooper Avenue,Glendale, NY 11385",111.0,0.94,1,0,1,1,11385,11812-106572,1467961.0825994622,40.708282000000004,-73.869033,POINT (-73.869 40.7083),0,0,0,0,0,0,2,7,9,12,13,18,0,0,0,0,2,4,0,0,0,0,1,2,0,0,0,0,1,1,0,0,1,1,1,1,0,0,0,0,0,0,0,0,0,0,0,0,0,0,0,0,0,0,0,0,0,0,0,0,0,0,0,0,0,0,1,4,4,4,4,4,0,0,0,1,2,4,0,1,1,1,1,1,0,0,0,0,0,0,0,0,0,0,0,0
6,6,95-17 63rd Drive,"95-17 63rd Drive,Rego Park, NY 11374",114.0,0.95,1,0,1,1,11374,24165-236144,352642.09620003117,40.729859999999995,-73.862684,POINT (-73.8627 40.7299),0,0,0,0,0,0,3,3,11,23,36,52,0,0,0,2,2,5,1,2,5,6,7,8,2,2,5,5,7,13,0,0,0,0,0,0,0,0,0,0,0,0,0,0,0,0,0,0,0,0,0,0,0,0,0,1,1,1,2,3,0,1,2,3,4,6,1,1,2,3,3,3,0,0,0,3,5,16,0,0,0,2,3,4,0,0,0,0,0,0,0,0,0,0,0,0
7,7,59-17 Junction Blvd,"59-17 Junction Blvd,Elmhurst, NY 11373",114.5,0.91,1,0,1,0,11373,57154-291133,601162.7798733397,40.73499879999999,-73.8647293,POINT (-73.8647 40.735),0,0,0,0,0,0,1,1,5,18,37,42,0,0,0,1,1,3,0,0,0,2,8,12,0,1,3,5,11,12,0,0,0,0,0,0,0,0,0,0,0,0,0,0,0,0,0,0,0,0,0,0,0,0,0,0,0,1,2,2,0,0,1,4,6,9,0,0,1,1,3,3,0,0,0,6,10,13,0,0,0,2,2,2,0,0,0,0,0,0,0,0,0,0,0,0
8,8,Queens Center Mall,"90-15 Queens Boulevard,K203,Elmhurst, NY 11373",89.5,0.91,1,0,1,0,11373,2787-35599,421596.08443307225,40.734534000000004,-73.86914,POINT (-73.8691 40.7345),0,0,0,0,0,0,1,4,8,16,26,48,0,0,0,0,1,6,0,1,1,3,7,12,0,0,0,3,6,12,0,0,0,0,0,0,0,0,0,0,0,0,0,0,0,0,0,0,0,0,0,0,0,0,0,0,1,1,2,3,1,1,3,6,9,9,0,0,0,0,1,3,0,0,2,5,7,11,0,0,0,2,2,2,0,0,0,0,0,0,0,0,0,0,0,0
9,9,132-40 Metropolitan Ave,"132-40 Metropolitan Ave,Richmond Hill, NY 11418",112.0,0.95,1,0,1,1,11418,21514-211004,1192407.684206064,40.702586,-73.8190238,POINT (-73.819 40.7026),0,0,0,0,0,0,0,0,0,2,5,20,0,0,1,3,4,6,0,0,0,1,2,7,0,0,0,2,2,4,0,0,0,0,0,0,0,0,0,0,0,0,0,0,0,0,0,0,0,0,0,0,0,0,0,0,1,1,2,6,0,0,0,0,0,0,0,0,0,0,0,3,0,0,0,0,3,6,0,0,0,0,0,0,0,0,0,1,2,3,0,0,0,0,0,0
10,10,Target Queens Place T-1344,"8801 Queens Blvd,Elmhurst, NY 11373",97.0,0.94,0,0,1,0,11373,13133-113948,347987.66243344045,40.73533,-73.87491,POINT (-73.8749 40.7353),0,0,0,0,0,0,0,1,3,12,23,47,0,0,0,2,3,5,0,3,4,5,5,6,0,0,1,1,3,7,0,0,0,0,0,0,0,0,0,0,0,0,0,0,0,0,0,0,0,0,0,0,0,0,0,0,0,2,2,3,2,3,3,5,6,6,0,0,0,0,0,0,0,0,1,4,10,14,0,0,0,0,0,2,0,0,0,0,0,1,0,0,0,0,0,0
11,11,Queens Blvd & Broadway,"86-51 Broadway,Elmhurst, NY 11373",112.0,0.81,1,0,1,1,11373,17202-177784,641696.8643285825,40.737190600000005,-73.8771567,POINT (-73.8772 40.7372),0,0,0,0,0,0,4,4,4,16,31,39,0,0,2,3,5,7,0,0,2,4,6,6,0,0,1,3,4,4,0,0,0,0,0,0,0,0,0,0,0,0,0,0,0,0,0,0,0,0,0,0,0,0,1,1,1,1,2,3,0,0,0,3,5,6,0,0,0,0,0,0,0,1,1,3,10,12,0,0,0,0,0,0,0,0,0,0,1,1,0,0,0,0,0,0
12,12,74-25 Grand Ave.-Shops at Grand,"74-25 Grand Ave.,Maspeth, NY 11373",113.5,0.91,1,0,1,0,11373,54304-286369,868580.8713327503,40.730396999999996,-73.88740299999998,POINT (-73.8874 40.7304),0,0,0,0,0,0,0,0,0,1,3,11,0,0,1,3,5,9,0,1,1,1,1,2,0,0,0,0,0,1,0,0,0,0,0,0,0,0,0,0,0,0,0,0,0,0,0,0,0,0,0,0,0,0,0,0,0,0,0,0,0,0,0,0,0,0,0,0,0,0,0,0,0,0,1,3,7,12,0,0,0,0,0,0,0,0,0,1,1,2,0,0,0,0,0,0
13,13,89th Ave & Sutphin Blvd.,"8900 Sutphin Blvd.,Jamaica, NY 11435",102.0,0.94,1,0,1,0,11435,25685-242005,757363.3189982704,40.703617,-73.808898,POINT (-73.8089 40.7036),0,0,0,0,0,0,2,3,12,19,33,47,0,0,0,2,8,14,0,0,3,4,6,10,0,0,2,2,4,8,0,0,0,0,1,2,0,0,0,0,0,0,0,0,0,0,0,0,0,0,0,0,0,0,0,0,0,3,7,7,0,0,0,0,0,2,0,0,3,4,4,17,0,0,0,1,2,5,0,0,0,0,1,2,0,0,0,4,4,5,0,0,0,0,0,0
14,14,New York Presbyterian Queens,"56-45 MAIN STREET,FLUSHING, NY 11355",100.0,0.91,0,0,0,0,11355,55519-278767,649156.2972838678,40.747071000000005,-73.82575,POINT (-73.8257 40.7471),0,0,0,0,0,0,0,0,0,3,15,19,0,0,0,6,7,8,0,1,1,2,2,7,1,1,1,1,2,3,0,0,0,0,0,0,0,0,0,0,0,0,0,0,0,0,0,0,0,0,0,0,0,0,0,0,0,0,0,0,0,0,0,0,0,0,0,0,0,0,0,0,0,0,1,3,5,11,0,0,0,0,0,1,0,0,0,0,0,0,0,0,0,14,16,16
15,15,159-27 Jamaica Ave.,"159-27 jamaica Ave.,Jamaica, NY 11432",105.0,0.92,1,0,1,0,11432,48116-261453,1255314.965819716,40.703761799999995,-73.7994635,POINT (-73.7995 40.7038),0,0,0,0,0,0,5,9,11,23,35,81,0,0,0,5,10,13,1,1,3,5,10,15,1,1,4,5,8,14,0,1,2,2,2,2,0,0,0,0,1,1,0,0,0,0,0,0,0,0,0,0,0,0,0,0,1,1,3,8,0,1,2,4,5,5,6,10,16,48,65,71,0,0,1,2,2,8,1,1,2,3,3,3,0,0,0,0,3,3,0,0,0,0,0,0
16,16,St. John's University - Queens,"8000 Utopia Pkwy,Jamaica, NY 11432",105.0,0.91,0,0,0,0,11432,3928-138154,1401523.6864410006,40.722696,-73.79595400000001,POINT (-73.796 40.7227),0,0,0,0,0,0,0,0,0,1,3,5,0,0,1,1,2,4,0,0,0,1,4,4,0,0,0,0,0,0,0,0,0,0,0,0,0,0,0,0,0,0,0,0,0,0,0,0,0,0,0,0,0,0,0,0,0,0,0,0,0,0,0,0,0,0,0,0,0,0,0,0,0,0,0,1,2,5,0,0,0,0,0,0,0,0,0,0,0,0,0,0,0,0,0,0
17,17,78-25 37th Avenue,"78-25 37th Avenue,Jackson Heights, NY 11372",121.5,0.95,1,0,1,0,11372,14317-120366,259098.98357034032,40.7496427,-73.8874177,POINT (-73.8874 40.7496),0,0,0,0,0,0,3,8,22,72,97,125,0,0,3,7,12,13,1,1,3,6,9,10,0,0,4,10,17,24,0,0,0,2,3,3,0,0,0,0,0,0,0,0,0,0,0,0,0,0,0,0,0,0,0,0,0,3,3,7,0,0,0,0,0,0,0,0,0,5,5,6,0,1,7,21,29,35,0,0,0,1,2,2,0,0,0,1,1,1,0,0,0,0,0,0
18,18,Target Flushing T-2451,"40-24 College Point Blvd,Flushing, NY 11354",87.0,0.95,0,0,0,0,11354,9077-145446,354387.31150303787,40.757228999999995,-73.8356575,POINT (-73.8357 40.7572),0,0,0,0,0,0,0,0,1,25,51,75,0,0,0,2,3,3,0,0,0,1,17,20,0,0,0,1,5,8,0,0,0,0,0,0,0,0,0,0,0,2,0,0,0,0,0,0,0,0,0,0,0,1,0,0,0,0,2,4,0,0,0,0,2,2,1,1,1,1,6,8,0,0,1,2,2,11,0,0,0,0,1,1,0,0,1,4,6,10,0,0,0,0,1,5
19,19,Resorts World Casino New York City,"11000 Rockaway Blvd,2nd Floor,Jamaica, NY 11420",84.0,0.94,0,0,0,0,11420,24283-209146,810453.362725444,40.672803200000004,-73.832675,POINT (-73.8327 40.6728),0,0,0,0,0,0,0,0,0,0,2,5,0,0,0,0,3,6,0,0,0,0,0,0,0,0,0,0,0,0,0,0,0,0,0,0,0,0,0,0,0,0,0,0,0,0,0,0,0,0,0,0,0,0,0,0,0,1,2,2,0,0,0,0,0,0,0,0,0,0,0,0,0,0,0,0,2,3,0,0,0,0,0,0,0,0,0,0,0,0,0,0,0,0,0,0
20,20,329 Wyckoff Ave.,"329 Wyckoff Ave.,Ridgewood, NY 11385",110.5,0.94,1,0,1,1,11385,25040-239644,400604.3472698688,40.699768,-73.91123999999998,POINT (-73.9112 40.6998),0,0,0,0,0,0,6,15,36,98,163,221,0,0,2,12,17,27,0,1,1,1,2,7,2,3,4,8,16,19,0,0,0,0,0,0,0,0,0,0,0,0,0,0,0,0,0,0,0,0,0,0,0,0,1,2,2,3,4,7,0,2,2,2,2,4,0,0,4,11,23,35,0,0,0,2,5,9,1,1,1,2,2,5,0,0,0,0,0,0,0,0,0,0,0,0
21,21,3805 Main St,"3805 Main St,Flushing, NY 11354",115.0,0.94,1,0,1,0,11354,23593-231144,447177.0302173993,40.760745,-73.83053000000001,POINT (-73.8305 40.7607),0,0,0,0,0,0,2,6,41,65,72,79,0,0,1,3,4,5,2,3,10,15,20,20,0,0,4,6,7,10,0,0,0,0,0,0,0,0,0,2,2,2,0,0,0,0,0,0,0,0,0,0,0,0,0,0,1,2,2,2,0,0,2,2,2,2,0,0,5,7,8,8,0,0,0,3,8,14,0,0,0,1,2,2,0,0,4,9,10,10,0,0,0,0,0,0
22,22,157-41 Cross Bay Blvd.,"157-41 Cross Bay Blvd.,Howard Beach, NY 11414",118.5,0.96,1,0,1,1,11414,7492-8546,1509897.078049439,40.66146,-73.840144,POINT (-73.8401 40.6615),0,0,0,0,0,0,1,1,4,5,7,7,0,0,0,3,6,7,0,0,4,4,4,4,0,1,1,1,1,1,0,0,0,0,0,0,0,0,0,0,0,0,0,0,0,0,0,0,0,0,0,0,0,0,0,0,0,0,0,3,0,0,0,0,0,0,0,0,0,1,1,1,0,0,0,0,1,4,0,0,0,0,0,0,0,0,0,0,0,0,0,0,0,0,0,0
23,23,188th Street & 64th Ave,"61-51 188th Street,Fresh Meadows, NY 11365",126.0,0.95,1,0,1,1,11365,7296-1042,539526.913141458,40.739391999999995,-73.785478,POINT (-73.7855 40.7394),0,0,0,0,0,0,2,5,6,8,10,12,0,0,0,2,3,6,1,1,1,1,4,4,0,0,0,0,0,0,0,0,1,1,1,1,0,0,0,0,0,0,0,0,0,0,0,0,0,0,0,0,0,0,0,0,0,0,0,0,0,0,1,1,1,1,0,0,0,0,0,0,1,1,3,4,5,8,0,0,1,1,1,1,0,0,1,1,1,1,0,0,0,0,0,0
24,24,Tower Square Shopping Center,"51-06 Northern Blvd,Woodside, NY 11377",113.0,0.92,1,0,1,0,11377,7910-87753,626907.578025289,40.752568,-73.90941,POINT (-73.9094 40.7526),0,0,0,0,0,0,1,4,7,16,25,80,0,0,0,0,3,7,0,1,2,2,2,5,0,0,0,0,3,9,0,0,0,0,0,0,0,0,0,0,0,0,0,0,0,0,0,0,0,0,0,0,0,0,0,0,0,1,2,5,0,0,0,2,2,2,0,0,0,1,1,2,0,0,1,2,10,29,0,0,0,1,1,2,0,0,0,0,0,0,0,0,0,0,0,0
25,25,46-09 Queens Blvd,"46-09 Queens Blvd.,Sunnyside, NY 11104",124.5,0.91,1,0,1,1,11104,11370-105177,326309.7641719441,40.743426,-73.918329,POINT (-73.9183 40.7434),0,0,0,0,0,0,1,4,15,52,68,72,0,0,0,2,2,8,0,2,2,7,8,8,0,1,4,9,11,12,0,0,0,0,1,1,0,0,0,0,0,0,0,0,0,0,0,0,0,0,0,0,0,0,1,1,1,2,3,3,0,0,0,0,0,0,0,0,0,0,0,0,0,1,3,13,24,30,0,0,0,2,2,3,0,0,0,0,0,0,0,0,0,0,0,0
26,26,Target Gateway T-1401,"519 Gateway Dr,Brooklyn, NY 11239",92.0,0.94,0,0,0,0,11239,15847-160724,446640.7741290967,40.652644200000005,-73.869849,POINT (-73.8698 40.6526),0,0,0,0,0,0,0,0,4,7,7,7,0,0,0,0,1,1,0,0,0,1,1,1,0,0,0,1,1,1,0,0,0,0,0,0,0,0,0,0,0,0,0,0,0,0,0,0,0,0,0,0,0,0,0,0,0,0,1,1,1,1,1,4,4,4,0,0,5,7,7,7,0,0,0,2,3,3,0,0,0,0,0,0,0,0,0,0,0,0,0,0,0,0,0,0
27,27,31-44 Steinway Street,"31-44 Steinway Street,Astoria, NY 11103",111.0,0.91,1,0,1,1,11103,7567-18640,523128.7120210821,40.760264,-73.91815,POINT (-73.9181 40.7603),0,0,0,0,0,0,2,4,31,88,174,235,0,0,1,4,7,11,0,0,7,10,19,20,0,0,5,8,17,20,0,0,0,0,0,1,0,0,0,0,0,0,0,0,0,0,0,0,0,0,0,0,0,0,0,0,0,1,3,4,0,0,1,1,1,3,5,7,12,17,18,20,0,1,1,1,4,8,0,0,1,4,10,11,0,0,0,0,0,0,0,0,0,0,0,0
28,28,35th Ave and 37th St,"3711 35th Avenue,Astoria, NY 11101",111.0,0.94,1,1,1,0,11101,9663-97893,319693.6605657929,40.755939,-73.923485,POINT (-73.9235 40.7559),0,0,0,0,0,0,2,6,17,49,120,161,0,0,1,3,5,6,0,0,0,4,11,13,0,0,0,4,9,16,0,0,1,1,1,1,0,0,0,0,0,0,0,0,0,0,0,0,0,0,0,0,0,0,0,0,0,1,4,6,0,0,0,0,1,3,0,0,0,1,10,16,0,0,2,3,5,13,1,1,1,4,6,9,0,0,0,1,1,4,0,0,0,0,0,0
29,29,774 Broadway,"774 Broadway,Brooklyn, NY 11206",95.0,0.88,1,0,1,0,11206,50622-275624,553990.5346826361,40.700053000000004,-73.94110500000001,POINT (-73.9411 40.7001),0,0,0,0,0,0,2,2,6,12,32,91,0,0,0,5,10,16,0,0,0,0,0,1,0,0,1,1,3,5,0,0,0,0,0,1,0,0,0,0,0,1,0,0,0,0,0,0,0,0,0,0,0,0,1,1,1,1,3,7,0,0,0,0,0,0,0,0,0,0,2,10,0,0,1,7,13,22,1,1,1,1,2,3,0,0,0,0,1,3,0,0,0,0,0,0
30,30,32-02 Francis Lewis Blvd.,"32-02 Francis Lewis Blvd,Flushing, NY 11358",114.5,0.95,1,0,1,0,11358,52530-281706,697120.2983871436,40.768685,-73.79208,POINT (-73.7921 40.7687),0,0,0,0,0,0,0,0,2,3,3,4,0,0,1,2,3,5,0,0,0,0,1,1,0,0,0,0,0,0,0,0,0,0,0,0,0,0,0,0,0,0,0,0,0,0,0,0,0,0,0,0,0,0,0,0,0,0,0,1,0,0,0,0,0,0,0,0,0,0,0,0,0,0,0,2,6,8,0,0,0,0,0,0,0,0,0,0,0,0,0,0,0,0,0,0
31,31,Union Ave & Ainslie St,"405-409 Union Avenue,Brooklyn, NY 11211",105.0,0.91,1,1,1,0,11211,18858-191484,375371.39739152923,40.7126374,-73.9516646,POINT (-73.9517 40.7126),0,0,0,0,0,0,0,2,29,91,168,279,0,0,0,8,23,36,0,0,0,0,6,19,0,0,0,0,8,11,0,0,1,1,3,5,0,0,0,0,1,1,0,0,0,0,0,0,0,0,0,0,1,1,1,1,2,2,7,9,0,0,0,0,0,0,0,0,2,8,13,33,0,0,1,11,25,33,0,0,0,1,5,9,0,0,1,1,3,4,0,0,0,0,0,1
32,32,Nassau Ave & Lorimer St,"66 Nassau Ave,Brooklyn, NY 11222",105.0,0.94,1,0,1,0,11222,53880-284307,223633.52740412008,40.723415,-73.95145,POINT (-73.9514 40.7234),0,0,0,0,0,0,5,22,43,61,110,218,0,0,2,3,4,10,0,0,1,6,13,17,0,0,4,6,9,15,0,0,0,1,2,3,0,0,0,1,1,1,0,0,0,0,0,0,0,0,0,0,0,0,0,0,1,1,1,3,0,0,0,0,0,0,3,5,8,11,18,37,0,0,2,7,14,21,0,1,1,3,8,10,0,0,0,3,6,7,0,0,0,0,0,1
33,33,215th St. & Northern Blvd,"215-29 Northern Blvd.,Bayside, NY 11361",116.0,0.91,1,0,1,1,11361,7391-1676,451687.6401132566,40.760841,-73.76648999999998,POINT (-73.7665 40.7608),0,0,0,0,0,0,1,2,3,13,21,23,0,0,1,2,3,6,0,0,2,5,5,5,0,0,0,2,2,3,0,0,0,0,0,0,0,0,1,1,1,1,0,0,0,0,0,0,0,0,0,0,0,0,0,0,0,0,1,1,0,0,0,0,0,0,0,0,0,1,3,3,0,0,0,0,4,4,0,0,0,1,1,1,0,0,0,1,2,2,0,0,0,0,0,0
34,34,221-04 Horace Harding Expwy.,"221-04 A/B Horace Harding,Oakland Gardens, NY 11364",112.5,0.95,1,0,1,0,11364,49196-267485,1467191.375179378,40.7488008,-73.7558385,POINT (-73.7558 40.7488),0,0,0,0,0,0,1,1,1,2,2,4,0,0,0,2,3,4,0,0,0,0,0,0,0,0,0,0,0,0,0,0,0,0,1,1,0,0,0,0,0,0,0,0,0,0,0,0,0,0,0,0,0,0,0,0,0,0,0,0,0,0,0,0,0,0,0,0,0,0,0,0,0,0,0,1,4,4,0,0,0,0,0,0,0,0,0,0,0,0,0,0,0,0,0,0
35,35,JFK T8 North,"JFK Airport,Jamaica, NY 11430",122.5,0.89,0,0,0,0,11430,18646-191304,813977.1136466314,40.646181,-73.775836,POINT (-73.7758 40.6462),1,2,2,2,3,5,0,0,4,13,27,37,0,0,0,0,0,0,0,0,0,1,4,8,0,0,0,0,0,0,0,0,0,0,0,0,0,0,0,0,0,0,0,0,0,0,0,0,0,0,0,0,0,0,0,0,0,2,4,4,0,0,0,0,0,0,0,0,0,1,11,11,0,0,0,0,0,0,0,0,0,0,0,0,0,0,1,1,1,1,0,0,0,0,0,0
36,36,The Bay Terrace Shopping Center,"23-88 Bell Boulevard,Bayside, NY 11360",114.0,0.91,1,0,1,0,11360,54771-286750,423903.4734408697,40.780296,-73.77673,POINT (-73.7767 40.7803),0,0,0,0,0,0,0,0,0,0,0,1,0,0,1,3,3,3,0,0,0,0,0,0,0,0,0,0,0,1,0,0,1,1,1,1,0,0,0,0,0,0,0,0,0,0,0,0,0,0,0,0,0,0,0,0,0,0,0,0,0,0,0,0,0,0,0,0,1,1,1,1,0,0,0,1,1,3,0,0,1,2,2,2,0,0,0,0,0,0,0,0,0,0,0,0
37,37,254-21 Horace Harding Expressway,"254-21 Horace Harding Expressway,Little Neck, NY 11362",116.5,0.97,1,0,1,1,11362,14240-112064,717645.9777353317,40.7644685,-73.72634040000001,POINT (-73.7263 40.7645),0,0,0,0,0,0,1,2,2,2,2,2,0,0,0,0,2,3,0,0,0,0,0,0,0,0,0,0,1,1,0,0,0,0,0,0,0,0,0,0,1,1,0,0,0,0,0,0,0,0,0,0,0,0,0,0,0,0,0,0,0,0,0,0,0,0,1,1,1,1,1,1,0,0,1,1,3,7,0,0,0,0,1,1,0,0,0,0,0,0,0,0,0,0,0,0
38,38,Great Neck - The Gardens,"6 Great Neck Road,Great Neck, NY 11021",106.0,0.99,1,0,1,1,11021,884-203464,329391.75040237384,40.786012,-73.72602700000002,POINT (-73.726 40.786),0,0,0,0,0,0,2,4,9,14,14,18,1,1,1,1,3,3,3,3,4,7,7,7,0,0,1,2,2,2,0,0,0,0,1,1,0,0,0,0,0,0,0,0,0,0,0,0,0,0,0,0,0,0,0,0,1,1,1,1,0,0,0,0,0,0,0,0,1,1,1,1,0,0,0,1,8,8,1,1,1,1,2,2,0,0,0,1,1,1,0,0,0,0,0,0
39,39,251-05 Jamaica Avenue,"251-05 Jamaica Avenue,Bellerose, NY 11426",112.5,0.92,1,0,1,1,11426,13450-106937,1669003.9402889204,40.726988,-73.713821,POINT (-73.7138 40.727),0,0,0,0,0,0,2,2,2,5,6,11,0,0,0,0,1,6,0,0,0,0,1,3,1,2,2,3,3,5,0,0,0,0,0,0,0,0,0,0,1,1,0,0,0,0,0,0,0,0,0,0,0,0,0,0,0,0,2,2,0,0,0,0,0,0,0,0,0,0,0,1,0,0,0,0,1,2,0,0,0,0,0,0,0,0,0,0,1,1,0,0,0,0,0,0
40,40,Stop & Shop-New Hyde Park #570,"653 Hillside Ave,New Hyde Park, NY 11040",105.0,0.99,0,0,1,0,11040,79421-96640,1757735.0325308626,40.741206,-73.69843399999998,POINT (-73.6984 40.7412),0,0,0,0,0,0,0,0,3,9,11,15,0,0,0,0,0,4,0,1,3,5,5,5,0,0,2,4,4,4,0,0,0,0,0,0,0,0,0,0,0,0,0,0,0,0,0,0,0,0,0,0,0,0,0,0,0,0,0,0,0,0,0,0,0,0,0,0,2,2,2,2,0,0,0,0,0,0,0,0,0,1,1,1,0,0,0,0,0,0,0,0,0,0,0,0
41,41,Target Elmont T-3237,"1730 HEMPSTEAD TPK,Elmont, NY 11003",84.0,0.95,0,0,0,0,11003,47681-259008,1100742.6782177498,40.708884000000005,-73.703848,POINT (-73.7038 40.7089),0,0,0,0,0,0,0,0,5,8,13,16,0,0,1,2,5,7,0,0,2,2,2,3,0,0,0,0,0,0,0,0,0,0,0,0,0,0,1,1,1,1,0,0,0,0,0,0,0,0,0,0,0,0,0,0,0,0,0,0,1,1,2,2,2,2,0,0,0,0,0,2,0,0,0,2,2,2,0,0,0,0,1,1,0,0,0,0,0,0,0,0,0,0,0,0
42,42,Macy's-Manhasset #5,"1100 Northern Blvd,Manhasset, NY 11030",89.5,0.95,1,0,1,0,11030,17216-155505,1019605.7650571624,40.788429,-73.70253100000001,POINT (-73.7025 40.7884),0,0,0,0,0,0,0,0,0,2,2,2,0,0,0,1,5,7,0,0,0,0,0,3,0,0,0,1,2,2,0,0,0,0,0,0,0,0,0,0,1,1,0,0,0,0,0,0,0,0,0,1,1,1,0,0,0,0,0,1,1,1,1,1,1,2,0,0,0,0,1,2,0,0,1,5,7,9,0,0,0,2,3,3,0,0,0,0,0,0,0,0,0,0,0,0
43,43,New Hyde Park,"1596 Union Turnpike,New Hyde Park, NY 11040",117.5,0.98,1,0,1,1,11040,7592-14132,2069927.6895250631,40.754044,-73.6879,POINT (-73.6879 40.754),0,0,0,0,0,0,1,1,5,7,11,12,0,0,0,1,1,4,0,1,2,4,5,5,1,1,1,1,1,2,0,0,0,0,0,0,0,0,0,0,0,0,0,0,0,0,0,0,0,0,0,0,0,0,0,0,0,0,0,0,0,0,1,2,2,2,0,0,0,3,8,8,0,0,0,2,4,4,0,1,2,2,2,2,0,0,0,0,0,0,0,0,0,0,0,0
44,44,Manhasset,"375 Plandome Road,Manhasset, NY 11030",115.5,0.94,1,0,1,1,11030,7246-553,2767537.9553087032,40.797670000000004,-73.70001500000001,POINT (-73.7 40.7977),0,0,0,0,0,0,3,3,5,6,6,6,0,0,0,1,5,6,1,1,3,3,5,5,0,0,0,0,0,0,0,1,1,1,1,1,0,0,0,0,0,0,0,0,0,0,0,0,0,0,0,0,0,1,0,0,1,1,1,1,0,0,0,0,1,1,1,1,1,1,2,3,0,0,1,3,6,10,0,0,0,0,0,0,0,0,0,0,0,0,0,0,0,0,0,0
45,45,West Hempstead,"580 Hempstead Turnpike,West Hempstead, NY 11552",116.5,0.96,1,0,1,0,11552,29396-253406,1958310.7212021127,40.70668999999999,-73.66085,POINT (-73.6608 40.7067),0,0,0,0,0,0,2,2,5,15,18,23,0,0,1,1,1,5,0,0,2,4,4,4,0,1,3,5,5,5,0,0,0,0,0,0,0,0,0,0,0,0,0,0,0,0,0,0,0,0,0,0,0,0,0,0,0,0,0,0,0,0,0,0,0,0,0,0,1,2,2,2,0,1,1,1,2,3,0,0,0,1,1,7,0,0,0,0,0,0,0,0,0,0,0,0
46,46,Mineola - 139 Jericho Tpke,"139 jericho tpke,Mineola, NY 11501",127.0,0.95,1,0,1,0,11501,55079-288372,910725.8314339336,40.74902,-73.640653,POINT (-73.6407 40.749),0,0,0,0,0,0,2,4,5,12,16,24,0,0,2,3,7,11,0,0,0,2,2,3,0,0,0,0,4,6,0,0,0,0,0,0,0,0,0,0,0,2,0,0,0,0,0,0,0,0,0,0,0,0,0,0,0,0,0,2,0,0,0,0,0,0,0,1,1,1,1,1,0,0,1,1,4,7,0,1,1,1,3,3,0,0,0,0,0,0,0,0,0,0,0,0
47,47,Roslyn Heights,"373 Willis Avenue,Roslyn Heights, NY 11577",120.5,0.95,1,0,1,1,11577,7543-3408,2335485.8191583487,40.780246999999996,-73.65022900000001,POINT (-73.6502 40.7802),0,0,0,0,0,0,0,0,0,0,0,0,0,0,0,0,0,3,0,0,0,0,0,0,0,0,0,0,0,0,0,0,0,0,0,0,0,0,0,0,0,0,0,0,0,0,0,0,0,0,0,0,0,0,0,0,0,0,0,0,0,0,0,0,0,0,0,0,0,0,0,0,0,0,0,0,3,4,0,0,0,1,1,1,0,0,0,0,0,0,0,0,0,0,0,0
48,48,7th Street at Garden City,"184 7th St,Garden City, NY 11530",118.5,0.97,1,0,1,1,11530,7627-20460,943085.7168193944,40.72507299999999,-73.634407,POINT (-73.6344 40.7251),0,0,0,0,0,0,1,3,3,3,3,5,0,0,0,2,2,3,0,0,0,1,2,3,0,0,1,1,1,3,0,0,0,0,0,0,0,0,0,0,0,0,0,0,0,0,0,0,0,0,0,0,0,0,0,0,0,0,2,2,0,0,0,0,0,1,0,0,0,0,0,0,0,0,3,3,3,3,0,0,0,0,0,0,0,0,0,0,1,1,0,0,0,0,0,0
49,49,Target Valley Stream T-2840,"500 W. Sunrise Hwy,Valley Stream, NY 11581",88.0,0.99,1,0,1,0,11581,18578-192502,1188261.9773093702,40.66428,-73.72019499999998,POINT (-73.7202 40.6643),0,0,0,0,0,0,1,1,5,9,17,20,0,0,0,1,2,4,0,0,0,1,3,3,1,1,1,1,2,2,0,0,0,0,0,0,0,0,0,0,0,0,0,0,0,0,0,0,0,0,0,0,0,0,0,0,0,0,0,0,0,1,3,6,6,6,0,0,2,4,5,6,0,0,0,0,0,1,0,0,0,0,1,1,0,0,0,0,0,0,0,0,0,0,0,0
50,50,Village of Westbury,"379 Glen Cove Road,Westbury, NY 11590",118.5,0.97,1,0,1,1,11590,7624-31063,3070541.9714342086,40.757146999999996,-73.61936700000003,POINT (-73.6194 40.7571),0,0,0,0,0,0,1,1,2,2,3,4,0,0,0,0,2,5,0,0,0,0,0,0,0,0,0,0,0,0,0,0,0,0,0,0,0,0,0,0,0,0,0,0,0,0,0,0,0,0,0,0,0,0,0,0,0,0,0,0,0,0,0,0,0,1,0,0,0,0,0,0,0,0,0,0,1,1,0,0,0,0,0,0,0,0,0,0,0,2,0,0,0,0,0,0
51,51,Roosevelt Field Mall-Lower Level,"630 Old Country Rd,Garden City, NY 11530",90.0,0.99,1,0,1,0,11530,7746-54939,1429509.6691074318,40.74422070000001,-73.60392829999998,POINT (-73.6039 40.7442),0,0,0,0,0,0,1,1,3,15,18,26,0,0,0,0,0,2,0,0,2,3,5,5,0,0,0,0,0,0,0,0,0,0,1,1,0,0,0,0,0,2,0,0,0,0,0,0,0,0,0,0,0,0,0,0,0,0,1,1,1,1,2,5,5,7,0,0,2,2,3,5,0,0,0,0,2,3,0,0,0,2,4,4,0,0,0,1,5,5,0,0,0,0,0,0
52,52,Port Washington,"72 Main Street,Port Washington, NY 11050",108.0,0.97,1,0,1,1,11050,7203-550,790354.3451924745,40.830427,-73.688419,POINT (-73.6884 40.8304),0,0,0,0,0,0,0,1,1,1,1,1,0,0,0,0,5,5,0,0,0,0,0,0,0,0,0,0,0,0,0,0,0,0,1,1,0,0,0,0,0,0,0,0,0,0,0,0,0,0,0,0,0,0,0,1,1,1,1,1,0,0,0,0,0,0,0,0,0,0,0,0,0,0,0,0,2,3,0,0,0,0,0,0,0,0,0,0,0,0,0,0,0,0,0,0
53,53,Lynbrook-Sunrise Hwy.,"839 Sunrise HWY,Lynbrook, NY 11563",109.5,0.95,1,0,1,1,11563,7413-249445,840783.8068466488,40.656487,-73.68343399999998,POINT (-73.6834 40.6565),0,0,0,0,0,0,1,1,1,3,16,31,0,0,0,1,2,6,0,0,0,0,1,5,0,0,0,0,3,4,0,0,0,0,0,1,0,0,0,0,0,0,0,0,0,0,0,0,0,0,0,0,0,0,0,0,0,0,1,1,0,0,0,0,0,0,0,0,0,0,0,7,0,0,0,2,2,2,0,0,0,1,2,2,0,0,0,0,0,0,0,0,0,0,0,0
54,54,Stop & Shop-Port Washington #546,"65 Shore Road,Port Washington, NY 11050",111.5,0.97,0,0,1,0,11050,72573-104042,760474.4275372535,40.837914000000005,-73.701255,POINT (-73.7013 40.8379),0,0,0,0,0,0,0,0,0,0,0,0,0,0,1,2,2,5,0,0,0,0,1,1,0,0,0,0,0,0,0,0,0,0,1,2,0,0,0,0,0,0,0,0,0,0,0,0,0,0,0,0,0,0,0,0,0,0,0,0,0,0,0,1,1,1,0,0,0,0,0,0,0,0,3,3,8,11,0,0,0,1,1,1,0,0,0,0,0,0,0,0,0,0,0,0
55,55,Hewlett-Peninsula Blvd.,"1336 Peninsula Blvd.,Hewlett, NY 11557",110.5,0.95,1,0,1,0,11557,7395-273764,1248084.190217296,40.644872899999996,-73.7031844,POINT (-73.7032 40.6449),0,0,0,0,0,0,1,3,6,6,15,22,0,0,0,1,5,7,0,1,1,1,7,9,0,0,0,1,3,6,0,0,0,0,0,0,0,0,0,0,0,0,0,0,0,0,0,0,0,0,0,0,0,0,0,0,0,1,1,2,0,0,0,0,0,0,0,1,1,1,6,12,0,0,1,1,1,1,0,0,0,0,3,4,0,0,0,0,0,0,0,0,0,0,0,0
56,56,Wheatly Plaza-Greenvale,"132 Wheatley Plaza,Greenvale, NY 11548",106.5,0.95,1,0,1,1,11548,7331-918,1347329.670333277,40.809481,-73.62723799999998,POINT (-73.6272 40.8095),0,0,0,0,0,0,0,0,3,6,6,6,0,0,0,3,3,3,0,0,2,3,3,3,0,0,0,0,0,0,0,0,0,0,0,0,0,0,0,0,0,0,0,0,0,0,0,0,0,0,0,0,0,0,0,0,0,0,1,1,0,0,1,1,1,1,0,0,0,1,1,1,0,0,0,0,0,0,0,1,1,1,1,1,0,0,0,0,0,0,0,0,0,0,0,0
57,57,Rockville Center,"21 North Park Ave,Rockville Center, NY 11570",107.0,0.99,1,1,1,1,11570,7494-8547,846018.9219055837,40.656917,-73.645059,POINT (-73.6451 40.6569),0,0,0,0,0,0,7,16,40,55,57,58,0,0,0,1,4,7,0,1,8,8,8,8,0,0,1,3,4,4,1,1,1,1,1,1,0,0,0,0,0,0,0,0,0,0,0,0,0,0,0,0,0,0,0,0,1,1,1,1,0,0,0,0,0,0,3,6,13,13,13,13,0,0,0,1,1,5,0,0,5,5,5,6,0,0,0,1,2,2,0,0,0,0,0,0
58,58,Hofstra University-Student Center,"1000 Fulton Avenue,Hemstead, NY 11550",92.5,0.95,1,0,1,0,11550,47121-209144,1155188.3921512412,40.71597999999999,-73.60088,POINT (-73.6009 40.716),0,0,0,0,0,0,0,0,3,14,18,23,0,0,2,2,6,7,0,0,0,0,1,1,0,0,0,0,0,0,0,0,1,2,2,2,0,0,0,0,0,0,0,0,0,0,0,0,0,0,0,1,3,4,0,0,0,0,0,0,0,0,0,0,0,0,0,0,0,0,0,0,0,0,1,2,2,3,0,0,0,2,4,4,0,0,0,0,0,0,0,0,0,0,0,0
59,59,Oceanside-Long Beach Rd.,"2755 Long Beach Rd.,Oceanside, NY 11572",119.0,0.97,1,0,1,1,11572,25937-242946,1678985.3181695018,40.6444666,-73.6389153,POINT (-73.6389 40.6445),0,0,0,0,0,0,1,4,5,8,13,15,0,0,1,2,5,6,0,1,1,2,4,5,0,0,0,1,2,2,0,0,0,0,0,0,0,0,0,0,0,0,0,0,0,0,0,0,0,0,0,0,0,0,0,0,0,0,0,0,0,0,0,0,0,0,0,0,0,1,1,1,0,0,1,2,2,3,0,1,1,1,1,1,0,0,0,0,0,0,0,0,0,0,0,0
60,60,Rockaway Tpke  Cedarhurst,"316 Rockaway Turnpike, Cedarhurst, NY 11516",107.0,0.95,0,0,0,0,11516,11536-104610,2164807.088639228,40.626315000000005,-73.736063,POINT (-73.7361 40.6263),0,0,0,0,0,0,1,2,10,16,20,23,0,0,0,0,2,3,0,1,1,2,2,2,0,0,0,0,0,1,0,0,0,0,0,0,0,0,0,0,0,0,0,0,0,0,0,0,0,0,0,0,0,0,0,0,0,0,0,1,0,0,0,1,1,1,0,0,1,2,2,2,0,0,0,0,1,2,0,0,0,1,2,2,0,0,0,0,0,0,0,0,0,0,0,0
61,61,Uniondale,"1228 Hempstead Turnpike,Uniondale, NY 11553",122.5,0.95,1,0,1,0,11553,7247-758,1474186.6987288538,40.718915,-73.58968999999998,POINT (-73.5897 40.7189),0,0,0,0,0,0,1,1,2,4,6,10,0,0,0,0,3,4,0,0,0,0,0,0,0,0,0,0,0,0,0,0,0,0,0,1,0,0,0,0,0,1,0,0,0,0,0,0,0,0,0,1,4,5,0,0,0,0,0,0,0,0,0,0,0,0,0,0,0,0,0,0,0,0,0,0,1,2,0,0,0,1,3,4,0,0,0,0,1,1,0,0,0,0,0,0
62,62,Baldwin-Sunrise Hwy.,"610 Sunrise Hwy.,Baldwin, NY 11510",117.0,0.95,1,0,1,0,11510,27861-248930,1040299.7580360395,40.6561379,-73.6131001,POINT (-73.6131 40.6561),0,0,0,0,0,0,1,1,4,6,10,14,0,0,0,4,4,7,0,0,1,1,1,1,0,0,0,2,3,3,0,0,0,0,0,0,0,0,0,0,1,1,0,0,0,0,0,0,0,0,0,0,0,0,0,0,0,0,1,1,0,0,0,0,0,0,0,0,0,0,0,0,0,0,0,0,3,7,0,0,0,0,0,0,0,0,0,0,0,1,0,0,0,0,0,0
63,63,Stop & Shop - Baldwin Harbor #452,"905 Atlantic Avenue,Baldwin Harbor, NY 11510",98.0,0.95,0,0,1,0,11510,73906-133727,1287338.8746843934,40.640678,-73.60813,POINT (-73.6081 40.6407),0,0,0,0,0,0,0,1,2,2,2,2,0,0,1,1,2,3,0,0,0,0,0,0,0,0,0,0,0,0,0,0,0,0,0,0,0,0,0,0,0,0,0,0,0,0,0,0,0,0,0,0,0,0,0,0,0,0,0,0,0,0,0,0,0,0,0,0,0,0,0,0,0,0,0,0,0,1,0,0,0,0,0,0,0,0,0,0,0,0,0,0,0,0,0,0
64,64,Target Freeport T-3236,"248 SUNRISE HWY,Freeport, NY 11520",84.0,0.95,0,0,1,0,11520,47676-259007,660955.7896186172,40.655736600000004,-73.57171819999998,POINT (-73.5717 40.6557),0,0,0,0,0,0,0,0,0,0,1,3,0,0,0,0,0,4,0,0,0,0,0,1,0,0,0,0,0,0,0,0,0,0,0,0,0,0,0,0,0,0,0,0,0,0,0,0,0,0,0,0,0,0,0,0,0,0,0,1,1,1,2,2,2,2,0,0,0,0,1,2,0,0,1,2,4,5,0,0,0,1,1,1,0,0,0,0,0,0,0,0,0,0,0,0
65,65,Merrick,"2015 Merrick Road,Merrick, NY 11566",118.0,0.95,1,0,1,1,11566,7302-555,2424840.021682776,40.656698,-73.549666,POINT (-73.5497 40.6567),0,0,0,0,0,0,0,0,0,0,2,5,0,0,0,1,5,7,0,0,0,0,0,2,0,0,0,0,1,1,0,0,0,0,0,1,0,0,0,0,0,0,0,0,0,0,0,0,0,0,0,0,0,0,0,0,0,0,0,1,0,0,0,0,0,0,0,0,0,0,0,0,0,0,0,2,2,2,0,0,0,0,0,0,0,0,0,0,0,2,0,0,0,0,0,0
66,66,North Merrick,"1713 Merrick Avenue,North Merrick, NY 11566",119.0,0.97,1,0,1,1,11566,13587-107917,2751025.086246156,40.676586,-73.55709300000001,POINT (-73.5571 40.6766),0,0,0,0,0,0,0,0,0,0,0,0,0,0,0,0,5,8,0,0,0,0,0,0,0,0,0,0,0,0,0,0,0,0,0,0,0,0,0,0,0,0,0,0,0,0,0,0,0,0,0,0,0,0,0,0,0,0,0,0,0,0,0,0,0,0,0,0,0,0,0,0,0,0,0,1,1,1,0,0,0,0,0,0,0,0,0,0,0,0,0,0,0,0,0,0
67,67,Island Park,"4507 Austin Blvd,Island Park, NY 11558",114.0,0.95,1,0,1,0,11558,8840-95307,1458484.8123643098,40.600037,-73.6542,POINT (-73.6542 40.6),0,0,0,0,0,0,1,2,7,12,16,18,0,0,0,3,3,4,0,0,0,1,1,1,0,0,0,0,1,2,0,0,0,0,0,0,0,0,0,0,0,0,0,0,0,0,0,0,0,0,0,0,0,0,0,0,1,1,1,1,0,0,0,0,0,0,0,0,1,2,2,2,0,0,0,0,1,4,0,0,1,2,2,2,0,0,0,0,0,0,0,0,0,0,0,0
68,68,Long Beach,"101 West Park Avenue,Long Beach, NY 11561",113.0,0.98,1,0,1,1,11561,7425-1903,684910.5821601981,40.588777,-73.66714999999998,POINT (-73.6671 40.5888),0,0,0,0,0,0,1,1,2,8,12,16,1,1,1,2,2,2,0,0,0,0,0,3,0,0,0,1,1,2,0,0,0,0,1,1,0,0,0,0,0,0,0,0,0,0,0,1,0,0,0,0,0,0,0,0,1,1,1,1,0,0,0,0,0,0,0,1,1,2,2,2,0,0,0,1,2,4,0,0,0,0,0,0,0,0,0,0,1,1,0,0,0,0,0,0
69,69,Stop & Shop - Long Beach #2582,"85 E Park Ave,Long Beach, NY 11561",98.0,0.99,0,0,0,0,11561,73937-135227,453132.3900318466,40.589292,-73.66225299999998,POINT (-73.6623 40.5893),0,0,0,0,0,0,0,0,4,7,14,17,0,0,0,1,2,2,0,0,0,2,3,3,0,0,1,1,2,3,0,0,0,1,1,1,0,0,0,0,0,0,0,0,0,0,1,1,0,0,0,0,0,0,0,0,1,1,1,1,0,0,0,0,0,0,0,0,1,2,2,3,0,0,0,2,2,2,0,0,0,0,0,0,0,0,0,0,1,2,0,0,0,0,0,0
70,70,East Meadow-Hempstead Tpke.,"2148 Hempstead Tpke.,East Meadow, NY 11554",120.0,0.97,1,0,1,0,11554,27104-246826,2950747.188852922,40.724740999999995,-73.5565333,POINT (-73.5565 40.7247),0,0,0,0,0,0,1,3,3,11,16,19,0,0,0,0,3,5,0,0,0,0,1,2,0,0,0,1,2,3,0,0,0,0,0,0,0,0,0,0,0,1,0,0,0,0,0,0,0,0,0,0,0,0,0,0,0,0,0,0,0,0,0,0,0,0,0,0,0,1,2,2,0,0,0,0,0,0,0,0,0,2,3,3,0,0,0,0,0,0,0,0,0,0,0,0
71,71,Wantagh,"1143 Wantagh Avenue,Wantagh, NY 11793",127.0,0.95,1,0,1,1,11793,16303-158164,1227019.5402898341,40.694862,-73.50706,POINT (-73.5071 40.6949),0,0,0,0,0,0,0,0,1,1,3,3,0,0,0,1,2,4,0,0,0,0,0,0,0,0,0,0,0,0,0,0,0,0,0,0,0,0,0,0,0,0,0,0,0,0,0,0,0,0,0,0,0,0,0,0,0,0,0,0,0,0,0,0,0,0,0,0,0,0,0,0,0,0,2,3,5,5,0,0,0,0,0,0,0,0,0,0,0,0,0,0,0,0,0,0
72,72,Levittown 2 - Hempstead Tpke,"2693 Hempstead Tpke,Levittown, NY 11756",122.0,0.95,1,0,1,0,11756,18569-180188,1898921.435145899,40.72475,-73.53611,POINT (-73.5361 40.7248),0,0,0,0,0,0,0,0,0,2,4,8,0,0,0,0,1,3,0,0,0,2,3,4,0,0,0,0,0,2,0,0,0,0,0,1,0,0,0,0,0,0,0,0,0,0,0,0,0,0,0,0,0,0,0,0,0,0,0,0,0,0,0,0,2,2,0,0,0,0,1,1,0,0,1,1,4,4,0,0,0,1,3,3,0,0,0,0,0,0,0,0,0,0,0,0
73,73,Seaford-Sunrise Hwy.,"3870 Sunrise Hwy,Seaford, NY 11783",121.0,0.95,1,0,1,0,11783,48856-261871,2574391.463665436,40.6744086,-73.4894072,POINT (-73.4894 40.6744),0,0,0,0,0,0,1,1,1,2,2,2,0,0,0,1,1,4,0,0,0,0,0,0,0,0,0,0,0,0,0,0,0,0,0,1,0,0,0,0,0,0,0,0,0,0,0,0,0,0,0,0,0,0,0,0,0,1,1,1,0,0,0,0,0,0,0,0,0,0,0,0,0,0,0,0,1,3,0,0,0,0,0,0,0,0,0,0,0,0,0,0,0,0,0,0
74,74,Massapequa Village Square,"4301 Merrick Road,Massapequa, NY 11758",124.0,0.95,1,0,1,1,11758,7307-1088,2652946.421373013,40.666962,-73.474868,POINT (-73.4749 40.667),0,0,0,0,0,0,0,1,1,1,1,1,0,0,0,2,2,2,0,0,0,0,0,2,0,0,0,0,0,2,0,0,0,0,0,1,0,0,0,0,0,0,0,0,0,0,0,0,0,0,0,0,0,0,0,0,0,0,0,0,0,0,0,0,0,0,0,0,0,0,0,0,0,0,0,0,0,2,0,0,0,0,0,0,0,0,0,0,0,0,0,0,0,0,0,0
75,75,Levittown - Hempstead Tpke.,"3240 Hempstead Tpke,Levittown, NY 11756",106.5,0.95,1,0,1,1,11756,9308-96185,1695235.7446716428,40.72554,-73.51638,POINT (-73.5164 40.7255),0,0,0,0,0,0,0,0,1,3,4,6,0,0,0,0,0,2,0,0,0,2,2,3,0,1,1,1,1,2,0,0,0,0,0,1,0,0,0,0,0,0,0,0,0,0,0,0,0,0,0,0,0,0,0,0,0,0,0,0,0,0,0,1,2,2,0,0,0,0,0,0,0,0,0,1,1,3,0,0,0,0,0,2,0,0,0,0,0,0,0,0,0,0,0,0
76,76,Target Levittown T-1264,"3850 Hempstead Tpke,Levittown, NY 11756",86.0,0.95,0,0,1,0,11756,15619-162724,1582473.8333623281,40.724441999999996,-73.49418,POINT (-73.4942 40.7244),0,0,0,0,0,0,0,0,2,3,9,13,0,0,1,1,2,3,0,0,0,2,3,5,0,0,0,0,0,1,0,0,0,0,0,1,0,0,0,0,0,1,0,0,0,0,0,0,0,0,0,0,0,0,0,0,0,0,0,0,0,0,0,1,1,1,0,0,0,1,1,2,0,0,0,0,1,3,0,0,0,0,1,2,0,0,0,0,0,0,0,0,0,0,0,0
77,77,Bethpage  Stewart Avenue,"205 Stewart Ave, Bethpage, NY 11714",121.0,0.91,0,0,0,0,11714,2782-91102,2367070.439930166,40.72633,-73.48279000000001,POINT (-73.4828 40.7263),0,0,0,0,0,0,1,1,4,9,10,12,0,0,1,1,2,3,0,0,1,3,3,3,0,0,1,2,2,2,0,0,0,0,0,0,0,0,0,0,0,0,0,0,0,0,0,0,0,0,0,0,0,0,0,0,0,0,0,0,0,0,0,0,0,0,0,0,0,0,0,0,0,0,0,0,1,3,0,0,1,2,2,2,0,0,0,0,0,0,0,0,0,0,0,0
78,78,Hicksville,"180 W Old Country Road,Hicksville, NY 11801",116.5,0.99,1,0,1,1,11801,14784-131067,784699.3186644829,40.762406,-73.527138,POINT (-73.5271 40.7624),0,0,0,0,0,0,2,3,4,9,14,22,0,0,0,5,7,9,0,0,1,2,4,4,0,0,0,0,1,2,0,0,0,0,0,1,0,0,0,0,1,1,0,0,0,0,0,0,0,0,0,0,0,0,0,0,0,0,1,1,0,0,0,0,0,1,0,0,0,0,2,2,0,0,0,0,3,4,0,0,0,1,3,4,0,0,0,0,0,0,0,0,0,0,0,0
79,79,Amityville- Broadway,"803 Broadway,200,Amityville, NY 11701",117.5,0.9,1,0,1,1,11701,24309-237007,1139940.8088474986,40.702526,-73.42648,POINT (-73.4265 40.7025),0,0,0,0,0,0,0,1,4,4,4,4,0,0,0,0,2,3,0,0,0,0,0,0,0,0,0,0,0,0,0,0,0,0,0,0,0,0,0,0,0,0,0,0,0,0,0,0,0,0,0,0,0,0,0,0,0,0,0,0,0,0,0,0,0,0,0,0,0,0,0,0,0,0,0,1,1,4,1,1,1,1,1,1,0,0,0,0,0,0,0,0,0,0,0,0
80,80,Stop & Shop-Amityville #550,"351 Merrick Rd,Amityville, NY 11701",98.0,0.95,0,0,1,0,11701,79470-97520,1321001.5457611992,40.667277,-73.406492,POINT (-73.4065 40.6673),0,0,0,0,0,0,0,0,0,0,0,2,0,0,0,0,3,3,0,0,0,0,0,0,0,0,0,0,0,0,0,0,0,0,0,0,0,0,0,0,0,0,0,0,0,0,0,0,0,0,0,0,0,0,0,0,0,0,0,0,0,0,0,0,0,0,0,0,0,0,0,0,0,0,0,0,1,3,0,0,0,0,0,0,0,0,0,0,0,0,0,0,0,0,0,0
81,81,Target Copiague T-1147,"1149 Sunrise Hwy,Copiague, NY 11726",86.0,0.95,0,0,0,0,11726,20102-145447,1513894.2741378762,40.687873700000004,-73.4061925,POINT (-73.4062 40.6879),0,0,0,0,0,0,0,0,1,2,2,2,0,0,0,1,2,5,0,0,0,0,0,0,0,0,0,0,0,0,0,0,0,0,0,0,0,0,0,0,0,0,0,0,0,0,0,0,0,0,0,0,0,0,0,0,0,0,0,1,0,0,0,0,0,0,0,0,0,0,0,0,0,0,0,0,0,2,0,0,0,0,0,0,0,0,0,0,0,0,0,0,0,0,0,0
82,82,The Plaza at Farmingdale Train,"121 Secatogue Ave,Farmingdale, NY 11735",106.5,0.94,0,0,1,0,11735,27338-238540,1230072.7531136626,40.735319200000006,-73.4427127,POINT (-73.4427 40.7353),0,0,0,0,0,0,1,1,1,4,4,9,0,0,0,2,4,4,0,0,0,0,0,0,0,0,0,0,1,1,0,0,0,0,0,0,0,0,0,0,0,0,0,0,0,0,0,0,0,0,0,0,0,0,0,1,1,1,1,1,0,0,0,0,0,0,0,0,0,0,0,0,0,0,0,1,4,4,0,0,0,0,0,0,0,0,0,0,0,0,0,0,0,0,0,0
83,83,Farmingdale,"10 Michael Ave,Farmingdale, NY 11735",132.0,0.95,1,0,1,1,11735,7397-1675,2558895.2349221455,40.727276,-73.424596,POINT (-73.4246 40.7273),0,0,0,3,3,3,1,2,8,9,9,9,0,0,0,0,0,0,0,0,2,2,2,2,0,0,0,0,0,0,0,0,1,1,1,1,0,0,0,0,0,0,0,0,0,0,0,0,0,0,0,0,0,0,0,0,0,0,0,0,0,0,0,0,0,0,0,0,0,0,0,0,0,0,0,0,1,2,0,0,0,0,0,0,0,0,1,2,2,2,0,0,0,0,0,0
84,84,West Babylon-Rte. 109,"677 Route 109,West Babylon, NY 11704",119.5,0.97,1,0,1,0,11704,48342-261872,2326558.029926041,40.714855,-73.38219000000001,POINT (-73.3822 40.7149),0,0,0,0,0,0,0,0,0,0,0,0,0,0,0,2,2,2,0,0,0,0,0,0,0,0,0,0,0,0,0,0,0,0,0,0,0,0,0,0,0,1,0,0,0,0,0,0,0,0,0,0,0,0,0,0,0,0,0,0,0,0,0,0,0,0,0,0,0,0,0,0,0,0,0,1,3,3,0,0,0,1,1,1,0,0,0,0,0,0,0,0,0,0,0,0
85,85,North Farmingdale,"2015 Broad Hollow Rd.,Farmingdale, NY 11735",115.0,0.96,1,0,1,0,11735,27040-246505,2440242.482891315,40.74955569999999,-73.4209798,POINT (-73.421 40.7496),0,0,0,0,0,0,1,1,4,4,4,5,0,0,0,0,1,4,0,0,0,0,0,0,0,0,0,0,0,0,0,0,0,0,0,0,0,0,0,0,0,1,0,0,0,0,0,0,0,0,0,0,0,1,0,0,0,0,0,0,0,0,0,1,1,1,0,0,0,0,0,0,0,0,0,0,9,16,0,0,0,0,0,0,0,0,0,0,0,0,0,0,0,1,1,1
86,86,Stop & Shop-Babylon #543,"88 Golding Avenue,Babylon, NY 11704",98.0,0.95,0,0,1,0,11704,79465-104047,1995238.983862161,40.71046399999999,-73.36200500000001,POINT (-73.362 40.7105),0,0,0,0,0,0,0,0,0,0,0,0,0,0,0,0,4,7,0,0,0,0,0,0,0,0,0,0,0,0,0,0,0,0,0,0,0,0,0,0,0,1,0,0,0,0,0,0,0,0,0,0,0,0,0,0,0,0,0,0,0,0,0,0,0,0,0,0,0,0,0,0,0,0,0,0,1,1,0,0,0,0,0,0,0,0,0,0,0,0,0,0,0,0,0,0
87,87,Plainview - Country Pointe,"1411 Old Country Road,Plainview, NY 11803",104.0,0.95,1,0,1,1,11803,52535-282384,2492752.7179576703,40.7797,-73.450935,POINT (-73.4509 40.7797),0,0,0,0,0,0,1,2,4,4,4,4,0,0,0,0,1,2,0,0,1,1,1,1,0,0,0,0,0,0,0,0,0,0,0,0,0,0,0,0,0,0,0,0,0,0,0,0,0,0,0,0,0,1,0,0,0,0,0,0,0,0,0,0,0,0,0,0,0,0,1,1,0,0,0,0,3,7,1,1,1,1,1,2,0,0,0,0,2,3,0,0,0,0,0,0
88,88,Plainview Centre,"399 South Oyster Bay Road,Plainview, NY 11803",122.0,0.99,1,0,1,1,11803,842-2053,2303303.870014155,40.784042,-73.50180999999998,POINT (-73.5018 40.784),0,0,0,0,0,0,3,6,11,15,15,15,0,0,0,0,4,6,0,2,4,5,5,5,0,0,1,2,2,2,0,0,0,0,0,0,0,0,0,0,0,0,0,0,0,0,0,0,0,0,0,0,0,0,0,0,0,0,0,0,0,0,0,0,0,0,0,0,1,2,2,2,0,0,0,3,3,6,0,0,0,0,0,0,0,0,0,0,0,0,0,0,0,0,0,0
89,89,West Babylon,"519 Montauk Highway,West Babylon, NY 11704",114.5,0.97,1,0,1,1,11704,9846-98601,1792182.223748893,40.68848699999999,-73.34051099999998,POINT (-73.3405 40.6885),0,0,0,0,0,0,0,0,0,0,0,0,0,0,0,0,3,3,0,0,0,0,0,0,0,0,0,0,1,1,0,0,0,0,0,0,0,0,0,0,0,0,0,0,0,0,0,0,0,0,0,0,0,0,0,0,0,0,0,0,0,0,0,0,0,0,0,0,0,0,0,0,0,0,0,0,0,0,0,0,1,1,1,1,0,0,0,0,0,0,0,0,0,0,0,0
90,90,Jericho,"475 North Broadway,Jericho, NY 11753",116.0,0.95,1,1,1,1,11753,7235-643,4257652.107751035,40.78954,-73.53453999999998,POINT (-73.5345 40.7895),0,0,0,0,0,0,1,1,2,4,6,6,0,0,0,0,2,2,1,1,2,3,3,3,0,0,1,1,1,1,0,0,0,0,0,0,0,0,0,0,0,0,0,0,0,0,0,0,0,0,0,0,0,0,0,0,0,0,0,0,0,0,2,2,2,2,0,0,0,0,0,0,0,0,0,3,3,4,0,0,0,0,0,0,0,0,0,0,0,0,0,0,0,0,0,0
91,91,Melville,"64 Broad Hollow Road,Melville, NY 11747",110.5,0.96,1,0,1,1,11747,7576-18559,2041940.9429972125,40.7907242,-73.41593420000001,POINT (-73.4159 40.7907),0,0,0,0,0,0,0,0,0,0,0,0,0,0,0,2,2,2,0,0,0,0,0,0,0,0,0,0,0,0,0,0,0,0,0,0,0,0,0,0,0,0,0,0,0,0,0,0,0,0,0,0,0,0,0,0,0,0,0,0,0,0,0,0,0,0,0,0,0,0,0,0,0,0,0,1,1,2,0,0,0,0,0,1,0,0,0,0,0,0,0,0,0,0,0,0
92,92,Syosset- South Oyster Bay,"390 Jericho Turnpike,Unit B,Syosset, NY 11791",109.0,0.95,1,0,1,1,11791,7728-62680,3551329.6254332536,40.809968,-73.50129100000001,POINT (-73.5013 40.81),0,0,0,0,0,0,2,4,5,7,10,12,0,0,0,2,2,4,0,1,1,3,3,3,0,0,0,0,1,1,0,0,0,0,0,0,0,0,0,0,0,0,0,0,0,0,0,0,0,0,0,0,0,0,0,0,0,0,0,0,0,1,1,2,2,2,0,0,0,0,0,0,0,0,1,1,1,2,0,0,0,0,0,0,0,0,0,0,0,0,0,0,0,0,0,0
93,93,North Babylon,"1238 Deer Park Ave,North Babylon, NY 11703",124.5,0.99,1,0,1,1,11703,16421-157664,2546153.0795887457,40.7375641,-73.32104840000001,POINT (-73.321 40.7376),0,0,0,0,0,0,0,0,0,0,0,0,0,0,0,3,3,5,0,0,0,0,0,0,0,0,0,0,0,0,0,0,0,0,0,0,0,0,0,0,0,0,0,0,0,0,0,0,0,0,0,0,0,0,0,0,0,0,0,0,0,0,0,0,0,0,0,0,0,0,0,0,0,0,0,0,0,0,0,0,0,0,0,0,0,0,0,0,0,0,0,0,0,0,0,0
94,94,Woodbury  Village,"7963 Jericho Turnpike,Woodbury, NY 11797",117.5,0.95,1,0,1,1,11797,7220-158624,1020381.052328708,40.81524,-73.476422,POINT (-73.4764 40.8152),0,0,0,0,0,0,0,0,1,1,1,1,0,0,0,0,0,3,0,1,1,2,4,4,0,0,0,0,0,0,0,0,0,0,0,0,0,0,0,0,0,1,0,0,0,0,0,0,0,0,0,0,0,0,0,0,0,0,0,0,0,0,0,0,0,0,0,0,0,0,0,0,0,0,0,0,1,4,0,0,0,0,1,1,0,0,7,8,8,8,0,0,0,0,0,0
95,95,North Melville,"488 Walt Whitman Rd,Melville, NY 11747",112.0,0.97,1,0,1,0,11747,21980-216607,2470401.913013485,40.813035000000006,-73.409464,POINT (-73.4095 40.813),0,0,0,0,0,0,1,1,4,6,7,12,0,0,0,0,2,2,0,0,0,0,1,2,0,0,0,0,0,0,0,0,0,0,0,0,0,0,0,0,0,0,0,0,0,0,0,0,0,0,0,0,0,0,0,0,0,0,0,0,0,0,0,0,0,1,0,0,0,1,1,1,0,0,0,1,1,1,0,0,0,0,0,0,0,0,0,0,0,0,0,0,0,0,0,0
96,96,Deer Park-Commack Rd.,"512 Commack Rd.,Deer Park, NY 11729",109.5,0.97,1,0,1,1,11729,26498-244384,2471810.719975837,40.7674174,-73.31121949999998,POINT (-73.3112 40.7674),0,0,0,0,0,0,1,1,2,3,15,16,0,0,0,2,2,2,0,0,0,0,0,0,0,0,0,0,0,0,0,0,0,2,2,2,0,0,0,0,0,0,0,0,0,0,0,0,0,0,0,0,0,0,0,0,0,0,0,0,0,0,0,0,28,28,0,0,0,0,64,64,0,0,0,0,1,1,0,0,1,1,1,1,0,0,0,0,0,0,0,0,0,0,0,0
97,97,Tanger Outlets Deer Park,"529 The Arches Circle,Deer Park, NY 11729",89.0,0.99,1,0,1,1,11729,14368-112365,1925042.8558811026,40.76473,-73.30429000000001,POINT (-73.3043 40.7647),0,0,0,0,0,0,1,3,11,14,16,16,0,0,0,0,0,2,0,0,0,0,0,0,0,0,0,0,0,0,0,0,2,2,2,2,0,0,0,0,0,0,0,0,0,0,0,0,0,0,0,0,0,0,0,0,0,0,0,0,2,12,28,28,28,28,8,20,64,64,64,64,0,1,1,1,1,1,0,0,0,0,0,1,0,0,0,0,0,0,0,0,0,0,0,0
98,98,Walt Whitman Shops-Center Court,"160 Walt Whitman Road,tbd,Huntington Station, NY 11746",89.5,0.98,1,0,1,1,11746,7722-194184,2154194.685409661,40.8222676,-73.4100212,POINT (-73.41 40.8223),0,0,0,0,0,0,0,0,5,5,8,9,0,0,0,0,0,2,0,0,0,2,4,5,0,0,0,0,1,1,0,0,0,0,0,0,0,0,0,0,0,0,0,0,0,0,0,0,0,0,0,0,0,0,0,0,0,0,0,0,1,3,6,6,8,8,0,0,0,0,0,0,0,0,0,0,1,3,0,0,0,0,0,0,0,0,0,0,0,0,0,0,0,0,0,0
99,99,Target Bay Shore T-1148,"838 Sunrise Hwy,Bay Shore, NY 11706",91.0,0.97,0,0,0,0,11706,15413-156964,2708955.344010821,40.727894,-73.2793382,POINT (-73.2793 40.7279),0,0,0,0,0,0,0,0,0,0,1,2,0,0,0,0,2,2,0,0,0,0,0,0,0,0,0,0,0,0,0,0,0,0,0,0,0,0,0,0,0,0,0,0,0,0,0,0,0,0,0,0,0,0,0,0,0,0,0,0,0,0,0,2,2,2,0,0,1,1,1,1,0,0,0,1,2,3,0,0,0,0,1,1,0,0,0,0,0,0,0,0,0,0,0,0
100,100,Target Huntington T-2844,"124 E Jericho Turnpike,Huntington, NY 11746",84.0,0.97,0,0,1,0,11746,20765-207753,2343326.6277637263,40.82762279999999,-73.40712740000001,POINT (-73.4071 40.8276),0,0,0,0,0,0,0,0,0,2,3,8,0,0,0,0,0,3,0,0,0,3,4,5,0,0,1,1,1,1,0,0,0,0,0,0,0,0,0,0,0,0,0,0,0,0,0,0,0,0,0,0,0,0,0,0,0,0,0,0,1,1,2,3,7,8,0,0,0,0,0,0,0,0,0,1,3,3,0,0,0,0,0,0,0,0,0,0,0,0,0,0,0,0,0,0
101,101,Commack Rd.  Henry St.,"668 Commack Rd, Commack, NY 11725",94.0,0.95,0,0,0,0,11725,28759-251047,3070351.1952304104,40.8068377,-73.2939541,POINT (-73.294 40.8068),0,0,0,0,0,0,0,0,1,2,2,2,0,0,0,0,1,1,0,0,0,0,0,0,0,0,0,0,0,0,0,0,0,0,0,0,0,0,0,0,0,0,0,0,0,0,0,0,0,0,0,0,0,0,0,0,0,0,0,0,0,0,0,0,1,2,0,0,0,0,0,0,0,0,0,0,0,0,0,0,0,0,0,0,0,0,0,0,0,0,0,0,0,0,0,0
102,102,Macys South Shore Mall,"1702 Sunrise Hwy,Bay Shore, NY 11706",70.0,0.97,0,0,0,0,11706,19833-188585,1936099.0721003718,40.739429,-73.245452,POINT (-73.2455 40.7394),0,0,0,0,0,0,0,0,1,2,2,2,0,0,0,0,3,3,0,0,0,0,0,0,0,0,0,0,0,0,0,0,1,1,1,1,0,0,0,0,0,0,0,0,0,0,0,0,0,0,0,0,0,0,0,0,0,0,0,0,1,2,4,4,4,4,0,0,0,0,0,0,0,0,0,0,0,0,0,0,0,1,1,1,0,0,0,0,0,0,0,0,0,0,0,0
103,103,East Northport  Rte. 25,"3011 Jericho Tpke. East Northport, NY 11731",133.0,0.92,0,0,0,0,11731,10045-99397,3128136.7895562,40.839426,-73.32386,POINT (-73.3239 40.8394),0,0,0,0,0,0,1,1,1,1,2,2,0,0,0,0,0,0,0,0,0,0,0,0,0,0,0,1,2,3,0,0,0,0,2,2,0,0,0,0,0,0,0,0,0,0,0,0,0,0,0,0,0,0,0,0,0,0,0,0,0,0,0,0,1,1,0,0,0,0,0,3,0,0,0,0,2,2,0,0,0,0,0,1,0,0,0,0,0,0,0,0,0,0,0,0
104,104,Target Commack T-1108,"98 Veterans Memorial Hwy,Commack, NY 11725",86.0,0.97,0,0,1,0,11725,15620-162704,2063888.375231924,40.83902399999999,-73.28690999999998,POINT (-73.2869 40.839),0,0,0,0,0,0,0,0,0,1,4,4,0,0,0,0,0,2,0,0,0,0,0,0,0,0,0,0,0,0,0,0,0,0,0,0,0,0,0,0,0,0,0,0,0,0,0,0,0,0,0,0,0,0,0,0,0,0,0,0,1,1,1,1,1,1,0,0,0,0,0,0,0,0,0,2,2,2,0,0,1,1,1,1,0,0,0,0,0,0,0,0,0,0,0,0
105,105,Jericho Tpke  Commack,"2055A Jericho Tpke Commack, NY 11725",78.0,0.92,0,0,0,0,11725,11811-104574,1885181.27250812,40.845152,-73.27492600000001,POINT (-73.2749 40.8452),0,0,0,0,0,0,0,0,0,0,3,4,0,0,0,3,3,4,0,0,0,0,0,0,0,0,0,0,0,0,0,0,0,0,0,0,0,0,0,0,0,0,0,0,0,0,0,0,0,0,0,0,0,0,0,0,0,0,0,0,0,0,0,0,0,0,0,0,0,0,0,0,0,0,1,1,1,1,0,0,0,0,0,1,0,0,0,0,0,0,0,0,0,0,0,0
106,106,E. Northport  Larkfield Rd,"506 Larkfield Rd, East Northport, NY 11731",118.0,0.95,0,0,0,0,11731,10329-100400,2633167.379208095,40.8638549,-73.32117459999998,POINT (-73.3212 40.8639),0,0,0,0,0,0,0,0,0,1,1,1,0,0,0,0,0,0,0,0,1,1,1,1,0,0,0,0,0,0,0,0,0,0,0,0,0,0,0,0,0,0,0,0,0,0,0,0,0,0,0,0,0,0,0,0,0,0,0,0,0,0,0,0,0,0,0,0,0,0,0,0,0,0,0,1,1,1,0,0,0,0,0,0,0,0,0,0,0,0,0,0,0,0,0,0
107,107,Islip Village,"455 Main St,Islip, NY 11751",110.0,0.95,1,0,1,1,11751,7651-39320,1429194.4215496338,40.7291666,-73.2149603,POINT (-73.215 40.7292),0,0,0,0,0,0,1,1,1,1,1,4,0,0,0,1,4,4,0,0,0,0,0,0,0,0,0,0,0,0,0,1,1,1,1,1,0,0,0,0,0,0,0,0,0,0,0,0,0,0,0,0,0,0,0,0,0,0,0,1,0,0,0,0,0,0,0,0,0,0,0,0,0,0,0,0,0,0,0,0,0,0,0,0,0,0,0,0,0,0,0,0,0,0,0,0
108,108,Target Central Islip T-2102,"160 N Research Pl,Central Islip, NY 11722",90.0,0.99,0,0,0,0,11722,76582-96831,1108818.2806990193,40.7728391,-73.20140889999998,POINT (-73.2014 40.7728),0,0,0,0,0,0,0,0,0,0,0,0,0,0,0,0,2,2,0,0,0,0,0,0,0,0,0,0,0,0,0,0,0,0,0,0,0,0,0,0,0,0,0,0,0,0,0,0,0,0,0,0,0,0,0,0,0,0,0,0,1,1,1,1,1,1,0,0,0,0,0,0,0,0,0,0,0,1,0,0,0,0,0,0,0,0,0,0,0,1,0,0,0,0,0,0
109,109,East Islip-Sunrise Hwy.,"2550 Sunrise Hwy.,East Islip, NY 11730",125.0,0.97,1,0,1,1,11730,49606-270104,3855216.7607495626,40.742142,-73.199558,POINT (-73.1996 40.7421),0,0,0,0,0,0,0,0,0,0,0,0,0,0,0,0,0,1,0,0,0,0,0,0,0,0,0,0,0,0,0,0,0,0,0,0,0,0,0,0,0,0,0,0,0,0,0,0,0,0,0,0,0,0,0,0,0,0,0,0,0,0,0,0,0,0,0,0,0,0,0,0,0,0,0,0,0,1,0,0,0,0,0,0,0,0,0,0,0,0,0,0,0,0,0,0
110,110,Hauppauge - Route 111,"513 Route 111,Hauppauge, NY 11788",113.5,0.95,1,0,1,1,11788,7813-74601,2644061.417534325,40.828482,-73.199326,POINT (-73.1993 40.8285),0,0,0,0,0,0,0,0,0,1,1,2,0,0,0,1,3,3,0,0,0,0,0,1,0,0,0,0,0,0,0,0,0,0,0,0,0,0,0,0,0,0,0,0,0,0,0,0,0,0,0,0,0,0,0,0,0,0,0,0,0,0,1,1,1,1,0,0,0,0,0,0,0,0,0,0,0,0,0,0,0,0,0,0,0,0,0,0,0,0,0,0,0,0,0,0
111,111,Huntington,"1 Wall Street,Huntington, NY 11743",119.5,0.95,1,0,1,1,11743,855-2052,1049650.1322004271,40.8712049,-73.427562,POINT (-73.4276 40.8712),0,0,0,0,0,0,1,2,5,12,12,12,0,0,1,2,2,2,0,0,1,3,3,3,0,0,0,0,0,0,0,0,3,3,4,4,0,0,0,0,0,0,0,0,0,0,0,0,0,0,0,0,0,0,0,0,0,0,0,0,0,0,0,0,0,0,0,0,0,0,0,0,0,0,0,0,1,1,0,0,0,0,0,0,0,0,0,0,0,0,0,0,0,0,0,0
112,112,Northport Village,"832A Fort Salonga Road,Northport, NY 11768",114.0,0.96,1,0,1,1,11768,10283-100401,2175137.1677282983,40.898537,-73.33077899999998,POINT (-73.3308 40.8985),0,0,0,0,0,0,3,3,6,8,14,18,0,0,0,1,2,5,0,0,0,0,0,0,0,0,0,0,0,0,0,0,0,0,0,0,0,0,0,0,0,0,0,0,0,0,0,0,0,0,0,0,0,0,0,0,0,0,0,0,0,0,0,0,0,0,0,0,0,0,0,0,0,0,0,1,1,1,0,0,0,0,0,0,0,0,0,0,0,0,0,0,0,0,0,0
113,113,Smithtown,"1 Miller Place,Smithtown, NY 11787",105.0,0.91,1,0,1,1,11787,7411-1582,3114064.598142592,40.855146000000005,-73.191064,POINT (-73.1911 40.8551),0,0,0,0,0,0,2,2,3,5,5,6,0,0,2,3,5,5,0,0,0,1,1,1,0,0,0,1,1,1,0,0,0,0,0,0,0,0,0,0,0,0,0,0,0,0,0,0,0,0,0,0,0,0,0,0,0,0,1,1,0,0,0,0,0,0,0,0,0,0,0,0,0,0,0,0,0,0,0,0,0,2,2,2,0,0,0,0,0,0,0,0,0,0,0,0
114,114,Islandia  NY,"3701 Express Dr N, Islandia, NY 11749",75.0,0.97,0,0,0,0,11749,23737-231984,2059460.743362249,40.810389,-73.160078,POINT (-73.1601 40.8104),0,0,0,0,0,0,0,0,0,0,0,0,0,0,0,0,0,0,0,0,0,0,0,0,0,0,0,0,0,0,0,0,0,0,0,0,0,0,0,0,0,0,0,0,0,0,0,0,0,0,0,0,0,0,0,0,0,0,0,0,0,0,0,0,1,1,0,0,0,0,0,0,0,0,0,0,0,2,0,0,0,0,0,0,0,0,0,0,0,0,0,0,0,0,0,0
115,115,Smith Haven Mall,"528 Smith Haven Mall,Lake Grove, NY 11755",98.0,0.99,1,0,1,1,11755,10046-98654,1558339.7727288562,40.865017,-73.13054000000002,POINT (-73.1305 40.865),0,0,0,0,0,0,0,1,7,11,13,14,0,0,0,0,0,0,0,0,0,2,2,4,0,0,0,2,2,2,0,0,0,0,0,0,0,0,0,0,0,0,0,0,0,0,0,0,0,0,0,0,0,0,0,0,0,0,0,0,1,2,4,5,7,7,0,0,0,1,2,2,0,0,0,0,0,0,0,0,0,0,1,1,0,0,0,0,0,0,0,0,0,0,0,0
116,116,Stony Brook (347),"1320 Stony Brook Road,Stony Brook, NY 11790",110.5,0.99,1,0,1,1,11790,7635-23767,1806326.7646711087,40.876415,-73.118951,POINT (-73.119 40.8764),0,0,0,0,0,0,0,2,8,10,11,11,0,0,0,0,0,0,0,0,0,0,1,1,1,1,1,1,1,1,0,0,0,0,1,1,0,0,0,0,0,0,0,0,0,0,0,0,0,0,0,0,0,0,0,0,0,0,0,0,0,0,0,0,0,0,0,0,0,0,0,1,0,0,0,0,1,1,0,0,0,0,0,1,0,0,0,0,0,0,0,0,0,0,0,0
117,117,Stonybrook Library,"STONYBOOK UNIVERSITY,Stony Brook, NY 11794",94.0,0.92,0,0,0,0,11794,48925-257625,1790376.495036045,40.91592429999999,-73.1228493,POINT (-73.1228 40.9159),0,0,0,0,0,0,1,1,6,7,16,20,1,2,3,4,4,6,0,0,0,0,0,1,0,0,0,1,1,1,0,0,0,0,0,0,0,0,0,0,0,0,0,0,0,0,0,0,0,0,0,1,1,1,0,0,0,0,0,1,0,0,0,0,0,0,0,0,0,0,0,0,0,0,3,6,12,16,0,0,1,2,2,2,0,0,0,1,1,1,0,0,0,0,0,0
118,118,Target South Setauket T-1191,"255 Pond Path,Centereach, NY 11720",90.0,0.95,0,0,1,0,11720,15617-162705,2642051.3833762244,40.885060300000006,-73.0995817,POINT (-73.0996 40.8851),0,0,0,0,0,0,0,0,0,1,1,1,0,0,0,0,0,0,0,0,0,2,2,2,1,1,1,1,1,1,0,0,0,0,0,0,0,0,0,0,0,0,0,0,0,0,0,0,0,0,0,0,0,0,0,0,0,0,0,0,1,1,1,1,1,1,0,0,0,0,0,0,0,0,0,0,0,0,0,0,0,0,0,0,0,0,0,1,1,1,0,0,0,0,0,0
119,119,ISP - Islip Gate 4 SW Terminal,"100 Arrival Ave,Ronkonkoma, NY 11779",98.0,0.95,1,0,0,0,11779,75901-97856,2791136.8225504947,40.78917999999999,-73.09849,POINT (-73.0985 40.7892),0,0,1,1,1,1,0,0,0,6,6,6,0,0,0,0,0,0,0,0,0,0,0,0,0,0,0,0,0,0,0,0,0,0,0,0,0,0,1,1,1,1,0,0,0,0,0,0,0,0,0,0,0,0,0,0,0,0,0,0,0,0,0,0,0,0,0,0,0,0,0,0,0,0,0,0,0,0,0,0,0,0,0,0,0,0,0,0,0,0,0,0,0,0,0,0
120,120,Bohemia,"4577 Sunrise Highway,Oakdale, NY 11716",122.5,0.92,1,0,1,1,11716,7503-7287,2816455.1186110894,40.754752,-73.11614999999998,POINT (-73.1161 40.7548),0,0,0,0,0,0,0,0,0,0,0,0,0,0,0,2,3,4,0,0,0,0,0,0,0,0,0,0,0,0,0,0,0,0,0,0,0,0,0,0,0,0,0,0,0,0,0,0,0,0,0,0,0,0,0,0,0,0,0,0,0,0,0,0,0,0,0,0,0,0,0,0,0,0,0,0,0,1,0,0,0,0,0,0,0,0,0,0,0,0,0,0,0,0,0,0
121,121,Bohemia- Veterans Mem Hwy,"4180 Veterans Memorial Hwy,Bohemia, NY 11716",102.5,0.97,1,1,1,1,11716,20136-203441,1377682.6864180008,40.782044,-73.09795199999998,POINT (-73.098 40.782),0,0,0,0,0,1,0,0,0,0,0,6,0,0,0,0,0,0,0,0,0,0,0,1,0,0,0,0,0,0,0,0,0,0,0,0,0,0,0,0,0,1,0,0,0,0,0,0,0,0,0,0,0,0,0,0,0,0,0,0,0,0,0,0,0,0,0,0,0,0,0,0,0,0,0,0,0,0,0,0,0,0,0,0,0,0,0,0,0,0,0,0,0,0,0,0
122,122,Centereach,"1942 Middle Country Road,Centereach, NY 11720",108.0,0.97,1,0,1,1,11720,7614-28547,2782265.188238884,40.857484299999996,-73.0809297,POINT (-73.0809 40.8575),0,0,0,0,0,0,0,1,4,4,4,4,0,0,0,0,0,4,0,0,0,0,0,0,0,0,0,0,0,0,0,0,0,0,0,0,0,0,0,0,0,0,0,0,0,0,0,0,0,0,0,0,0,0,0,0,0,0,0,0,0,0,1,6,7,7,0,0,0,0,0,0,0,0,0,0,0,0,0,0,0,0,0,0,0,0,0,0,0,0,0,0,0,0,0,0
123,123,Aramark at Suffolk Comm College,"533 College Rd,Selden, NY 11784",118.0,0.95,0,0,1,0,11784,27179-246407,2389513.528381951,40.8470314,-73.0538559,POINT (-73.0539 40.847),0,0,0,0,0,0,0,1,1,4,4,4,0,0,0,2,2,2,0,0,0,0,0,0,0,0,0,0,0,0,0,0,0,1,1,1,0,0,0,0,0,0,0,0,0,0,0,0,0,0,0,0,0,0,0,0,0,0,0,0,0,0,0,0,0,0,0,0,0,0,0,0,0,0,0,0,0,0,0,0,0,0,0,0,0,0,0,0,0,0,0,0,0,0,0,0
124,124,Selden,"1251 Middle Country Road,Selden, NY 11784",122.5,0.97,1,0,1,1,11784,7528-14030,2184571.386409425,40.86305,-73.054992,POINT (-73.055 40.8631),0,0,0,0,0,0,0,0,0,0,0,0,0,0,0,0,0,0,0,0,0,0,0,0,0,0,0,0,0,0,0,0,0,0,0,0,0,0,0,0,0,0,0,0,0,0,0,0,0,0,0,0,0,0,0,0,0,0,0,0,0,0,0,0,0,0,0,0,0,0,0,0,0,0,1,1,1,4,0,0,0,0,0,0,0,0,0,0,0,0,0,0,0,0,0,0
125,125,Target Sayville T-2847,"5750 Sunrise Hwy,Sayville, NY 11782",90.0,0.95,0,0,1,0,11782,23497-218704,2597032.87404352,40.7664151,-73.0669465,POINT (-73.0669 40.7664),0,0,0,0,0,0,0,0,0,0,2,2,0,0,0,0,0,2,0,0,0,0,0,0,0,0,0,0,0,0,0,0,0,0,0,0,0,0,0,0,0,0,0,0,0,0,0,0,0,0,0,0,0,0,0,0,0,0,0,0,0,1,1,3,3,3,0,0,0,0,0,0,0,0,0,1,1,1,0,0,0,1,1,1,0,0,0,0,0,0,0,0,0,0,0,0
126,126,Farmingville-North Ocean Ave.,"2280 North Ocean Ave.,B,Farmingville, NY 11738",110.5,0.97,1,0,1,0,11738,48613-264047,2040719.462479406,40.8260654,-73.02122949999998,POINT (-73.0212 40.8261),0,0,0,0,0,0,1,1,3,5,5,7,0,0,0,0,0,0,0,0,0,0,0,0,0,0,0,0,0,0,0,0,0,0,0,0,0,0,0,0,0,0,0,0,0,0,0,0,0,0,0,0,0,0,0,0,0,0,0,0,0,0,0,0,0,0,0,0,0,0,0,0,0,0,0,0,0,0,0,0,1,1,1,1,0,0,1,1,2,2,0,0,0,0,0,0
127,127,Sayville,"59 Main Street,Sayville, NY 11782",105.0,0.95,1,0,1,1,11782,7447-6426,1905278.315035664,40.7356749,-73.08333170000002,POINT (-73.0833 40.7357),0,0,0,0,0,0,2,5,5,6,6,6,0,0,0,5,5,8,0,1,1,1,1,1,0,1,1,1,1,1,0,0,1,1,1,1,0,0,0,0,0,0,0,0,0,0,0,0,0,0,0,0,0,0,0,0,0,0,1,1,0,0,0,0,0,0,0,0,0,0,0,0,0,0,5,5,5,6,0,0,0,0,1,1,0,0,0,0,0,0,0,0,0,0,0,0
128,128,Bayport,"911 Montauk Highway,Bayport, NY 11705",100.5,0.95,1,0,1,1,11705,10284-100403,3021782.641440098,40.74854699999999,-73.04787000000002,POINT (-73.0479 40.7485),0,0,0,0,0,0,0,0,0,0,0,0,0,0,0,0,1,4,0,0,0,0,0,0,0,0,1,1,1,1,0,0,0,0,0,0,0,0,0,0,0,0,0,0,0,0,0,0,0,0,0,0,0,0,0,0,0,0,0,0,0,0,0,0,0,0,0,0,0,0,0,0,0,0,0,0,0,0,0,0,0,0,0,0,0,0,0,0,0,0,0,0,0,0,0,0
129,129,East Setauket,"246 Route 25-A,Setauket, NY 11733",107.5,0.97,1,1,1,1,11733,7432-2586,3207175.9284839975,40.937129,-73.10939599999998,POINT (-73.1094 40.9371),0,0,0,0,0,0,1,1,1,1,1,1,0,0,0,0,2,3,0,0,1,1,1,1,0,0,0,0,0,0,0,0,0,0,0,0,0,0,0,0,0,0,0,0,0,0,0,0,0,0,0,0,0,0,0,0,0,0,0,0,0,0,0,0,0,0,0,0,0,0,0,0,0,0,0,0,0,2,0,0,0,0,0,0,0,0,0,0,0,0,0,0,0,0,0,0
130,130,Target Medford T-1948,"2975 Horseblock Rd,Medford, NY 11763",84.0,0.95,0,0,1,0,11763,76412-95718,1959604.6645764087,40.824796,-72.988697,POINT (-72.9887 40.8248),0,0,0,0,0,0,0,0,0,0,1,1,0,0,0,0,0,0,0,0,0,1,1,1,0,0,0,0,1,1,0,0,0,0,0,0,0,0,0,0,0,0,0,0,0,0,0,0,0,0,0,0,0,0,0,0,0,0,0,0,1,1,1,1,1,1,0,0,0,0,0,0,0,0,0,0,0,1,0,0,0,0,0,0,0,0,0,0,0,0,0,0,0,0,0,0
131,131,Coram-Rte. 112,"1710 Route 112,Coram, NY 11727",108.5,0.95,1,0,1,0,11727,28920-251790,2792818.1858982053,40.8927914,-73.0165686,POINT (-73.0166 40.8928),0,0,0,0,0,0,1,2,5,5,5,5,0,0,0,0,0,0,0,0,0,0,0,0,0,0,0,0,0,0,0,0,0,1,1,1,0,0,0,0,0,0,0,0,0,0,0,0,0,0,0,0,0,0,0,0,0,0,0,0,0,0,0,0,0,0,0,0,0,0,0,0,0,0,0,0,1,1,0,0,0,0,0,0,0,0,0,0,0,0,0,0,0,0,0,0
132,132,Port Jefferson,"201 Main Street,Unit C,Port Jefferson, NY 11777",120.0,0.97,1,1,1,1,11777,7210-551,1532818.9430308696,40.945769,-73.06831700000001,POINT (-73.0683 40.9458),0,0,0,0,0,0,1,2,4,4,4,4,0,0,1,2,5,6,0,0,0,0,0,0,0,0,0,0,1,1,0,0,0,0,0,0,0,0,0,0,0,0,0,0,0,0,0,0,0,0,0,0,0,0,0,0,0,0,0,0,0,0,0,0,0,0,0,1,1,1,1,1,0,0,1,3,4,4,0,0,0,0,0,0,0,0,0,0,0,0,0,0,0,0,0,0
133,133,Stop & Shop-Medford #583,"700-60 Patchogue Yaphank Rd,Medford, NY 11763",105.0,0.95,0,0,1,0,11763,79377-97521,2855403.419120265,40.805993,-72.95365699999998,POINT (-72.9537 40.806),0,0,0,0,0,0,0,0,3,3,3,3,0,0,0,0,0,0,0,0,0,0,0,0,0,0,0,0,0,0,0,0,0,0,0,0,0,0,0,0,0,0,0,0,0,0,0,0,0,0,0,0,0,0,0,0,0,0,0,0,0,0,0,0,0,0,0,0,0,0,0,0,0,0,0,0,0,0,0,0,0,0,0,0,0,0,0,0,0,0,0,0,0,0,0,0
134,134,Miller Place,"385 Route 25 A,14,Miller Place, NY 11764",115.5,0.99,1,0,1,1,11764,7844-81481,2882191.9386153533,40.942142,-72.98740600000001,POINT (-72.9874 40.9421),0,0,0,0,0,0,1,1,7,9,9,9,0,0,0,0,0,1,0,0,1,1,1,1,0,0,0,0,0,0,0,0,0,0,0,0,0,0,0,0,0,0,0,0,0,0,0,0,0,0,0,0,0,0,0,0,0,0,0,0,0,0,0,0,0,0,0,0,0,0,0,0,0,0,0,0,0,1,0,0,0,0,0,0,0,0,0,0,0,0,0,0,0,0,0,0
135,135,Tanger Outlets Riverhead,"1770 West Main Street, Suite 1400,Riverhead, NY 11901",82.0,0.96,1,0,1,1,11901,10167-99943,1220818.4660277877,40.91721870000001,-72.70964839999998,POINT (-72.7096 40.9172),0,0,0,0,0,0,0,0,0,0,0,2,0,0,0,0,0,0,0,0,0,0,0,0,0,0,0,0,0,0,0,0,0,0,0,0,0,0,0,0,0,0,0,0,0,0,0,0,0,0,0,0,0,0,0,0,0,0,0,0,0,0,0,1,2,2,0,0,0,0,1,1,0,0,0,0,0,0,0,0,0,0,0,0,0,0,0,0,0,2,0,0,0,0,0,0
136,136,Riverhead S/C - Cty Rd 58,"1791 OLD COUNTRY RD RT 58,Riverhead, NY 11901",121.0,0.99,1,0,1,1,11901,18624-187364,1823804.7894627184,40.92383,-72.703285,POINT (-72.7033 40.9238),0,0,0,0,0,0,0,0,0,3,4,5,0,0,0,0,0,0,0,0,0,0,0,0,0,0,0,0,0,0,0,0,0,0,0,0,0,0,0,0,0,0,0,0,0,0,0,0,0,0,0,0,0,0,0,0,0,0,0,0,0,0,0,1,1,3,0,0,0,0,1,2,0,0,0,0,0,0,0,0,0,0,0,0,0,0,1,1,1,1,0,0,0,0,0,0
137,137,Target Riverhead T-1818,"1150 Old Country Rd,Riverhead, NY 11901",86.0,0.97,0,0,1,0,11901,20877-208284,1102339.1947336106,40.933212700000006,-72.68017409999999,POINT (-72.6802 40.9332),0,0,0,0,0,0,0,0,0,0,2,3,0,0,0,1,3,6,0,0,0,0,0,0,0,0,0,1,3,3,0,0,0,0,0,0,0,0,0,0,0,0,0,0,0,0,0,0,0,0,0,0,2,2,0,0,0,0,0,0,0,0,0,0,0,0,0,0,0,0,0,0,0,0,0,0,0,0,0,0,0,0,0,0,0,0,0,0,0,0,0,0,0,0,0,0
138,138,Hampton Bays,"24 Montauk Highway,Hampton Bays, NY 11946",112.0,0.97,1,0,1,1,11946,7718-59500,1190428.9820553765,40.878629,-72.521472,POINT (-72.5215 40.8786),0,0,0,0,0,0,1,1,1,2,3,3,0,0,0,0,1,2,0,0,0,0,0,0,0,0,0,0,0,0,0,0,0,0,1,1,0,0,0,0,0,0,0,0,0,0,0,0,0,0,0,0,0,0,0,0,0,1,1,1,0,0,0,0,0,0,0,0,0,0,0,0,0,0,0,1,1,1,0,0,0,0,0,0,0,0,0,0,0,0,0,0,0,0,0,0
139,139,Mattituck,"10095 Main Road,Mattituck, NY 11952",108.5,0.95,1,0,1,0,11952,13718-107982,1341297.7129485856,40.98585,-72.5379,POINT (-72.5379 40.9858),0,0,0,0,0,0,0,0,0,0,1,1,0,0,0,0,0,1,0,0,0,0,1,1,0,0,1,1,1,1,0,1,1,1,1,1,0,0,0,0,0,0,0,0,0,0,0,0,0,0,0,0,0,0,0,0,0,0,1,1,0,0,0,0,0,0,0,0,0,0,0,0,0,0,0,0,1,2,0,0,0,0,0,0,0,0,0,0,0,0,0,0,0,0,0,0
140,140,Bridgehampton Village,"2488 Montauk Hwy,Bridgehampton, NY 11932",112.0,0.95,1,1,1,1,11932,7406-1586,1869975.4080906368,40.937409,-72.301653,POINT (-72.3017 40.9374),0,0,0,0,0,0,0,0,0,0,0,0,1,1,1,1,2,2,0,0,0,0,0,1,0,0,0,0,0,0,0,0,0,0,0,0,0,0,0,0,0,0,0,0,0,0,0,0,0,0,0,0,0,0,0,0,0,0,1,1,0,0,0,0,0,0,0,0,0,0,0,0,0,0,0,0,0,0,0,0,0,0,0,0,0,0,0,0,0,0,0,0,0,0,0,0
141,141,East Hampton Village,"39 Main Street,East Hampton, NY 11937",115.5,0.97,1,1,1,1,11937,7884-46539,2298357.4241143917,40.96325,-72.18600099999998,POINT (-72.186 40.9633),0,0,0,0,0,0,0,0,1,1,1,1,0,0,0,2,3,4,0,0,0,0,0,0,0,0,1,2,2,2,1,1,1,1,2,2,0,0,0,0,0,0,0,0,0,0,0,0,0,0,0,0,0,0,0,0,0,0,1,1,0,0,0,0,0,0,0,0,0,0,0,0,0,0,1,2,3,3,0,0,0,0,0,0,0,0,0,1,1,1,0,0,0,0,0,0
142,142,Georgetowne Shopping Center,"2177 Ralph Ave,Brooklyn, NY 11234",106.0,0.94,1,0,1,0,11234,54804-288519,743729.5707822423,40.626203100000005,-73.91601920000001,POINT (-73.916 40.6262),0,0,0,0,0,0,0,1,2,2,3,6,0,0,0,0,3,11,0,0,1,1,1,1,0,0,0,0,1,1,0,0,0,0,0,0,0,0,0,0,0,0,0,0,0,0,0,0,0,0,0,0,0,0,0,0,0,0,0,0,0,0,0,0,0,0,0,0,0,0,0,0,0,0,0,1,4,6,0,0,0,0,0,0,0,0,0,0,0,0,0,0,0,0,0,0
143,143,LIU CW Post,"720 Northern Blvd,Brookfield, NY 11548",82.5,0.91,0,0,0,0,11548,15465-147769,1937443.3481854738,40.8171107,-73.59663520000001,POINT (-73.5966 40.8171),0,0,0,0,0,0,0,0,0,0,0,0,0,0,0,3,4,4,0,0,0,0,0,0,0,0,0,0,0,0,0,0,0,1,1,1,0,0,0,0,0,0,0,0,0,0,0,0,0,0,0,0,0,0,0,0,0,0,0,0,0,0,0,0,0,0,0,0,0,0,0,0,0,0,0,2,3,3,0,0,0,0,0,0,0,0,0,0,0,0,0,0,0,0,0,0
144,144,Glen Cove,"5 School Street,Glen Cove, NY 11542",112.5,0.97,1,0,1,1,11542,832-2026,586531.6339973779,40.865982,-73.63113,POINT (-73.6311 40.866),0,0,0,0,0,0,4,6,17,24,24,31,0,0,0,2,5,6,0,0,1,2,2,2,0,0,0,0,2,6,1,1,1,1,1,1,0,0,0,1,1,1,0,0,0,0,0,0,0,0,0,0,0,0,0,0,0,0,0,0,0,0,0,0,0,1,0,1,3,4,4,5,0,0,0,1,2,2,0,1,2,4,4,5,0,0,0,0,0,0,0,0,0,0,0,0
145,145,Flatbush Ave & Kings Hwy,"1927 Flatbush Ave,Brooklyn, NY 11234",108.0,0.91,1,0,1,0,11234,23591-231287,796300.7059918867,40.622825799999994,-73.93663570000001,POINT (-73.9366 40.6228),0,0,0,0,0,0,0,0,0,1,5,7,0,0,0,4,5,6,0,0,0,0,0,0,0,0,0,0,1,2,0,0,0,0,0,0,0,0,0,0,0,0,0,0,0,0,0,0,0,0,0,0,0,0,0,0,0,0,0,0,0,0,0,0,0,0,0,0,0,0,0,0,0,0,0,1,4,6,0,0,0,0,0,0,0,0,0,0,0,0,0,0,0,0,0,0
146,146,Franklin Ave & Eastern Pkwy,"341 Eastern Pkwy,Brooklyn, NY 11238",107.5,0.91,1,0,1,0,11238,23266-228865,365396.7814917128,40.671101,-73.95765999999998,POINT (-73.9577 40.6711),0,0,0,0,0,0,4,10,30,62,110,157,0,0,0,3,9,11,1,1,2,2,5,7,0,0,1,2,6,6,0,0,0,0,1,1,0,0,0,1,2,2,0,0,0,0,0,0,0,0,0,0,0,0,0,1,2,3,6,6,0,0,0,0,0,0,0,0,0,3,5,6,0,0,0,1,4,6,0,0,0,2,4,7,0,0,0,0,1,1,0,0,0,0,0,17
147,147,Target Brooklyn College,"2201 Nostrand Ave,Brooklyn, NY 11210",90.0,0.94,0,0,0,0,11210,76878-100172,584694.9990608265,40.631485299999994,-73.94735959999998,POINT (-73.9474 40.6315),0,0,0,0,0,0,0,0,0,0,0,0,0,0,0,3,6,7,0,0,0,0,0,0,0,0,0,0,0,1,0,0,1,1,1,1,0,0,0,0,0,0,0,0,0,0,0,0,0,0,0,0,0,0,0,0,1,1,1,2,0,1,1,1,1,1,0,0,0,0,0,0,0,0,0,1,2,6,0,0,1,1,1,1,0,0,0,0,0,0,0,0,0,0,0,0
148,148,33-42 Hillel Place,"33-42 Hillel Place,Brooklyn, NY 11210",107.5,0.91,1,0,1,0,11210,9721-97945,695347.7932496096,40.63234,-73.94856999999999,POINT (-73.9486 40.6323),0,0,0,0,0,0,0,0,0,0,0,0,0,0,0,6,6,6,0,0,0,0,0,0,0,0,0,0,1,1,0,1,1,1,1,1,0,0,0,0,0,0,0,0,0,0,0,0,0,0,0,0,0,0,0,1,1,1,1,2,0,0,1,1,1,1,0,0,0,0,0,0,0,0,1,1,3,5,0,0,0,1,1,1,0,0,0,0,0,0,0,0,0,0,0,0
149,149,Macy's-Kings Plaza #6,"5400 Avenue U,Brooklyn, NY 11234",75.0,0.94,0,0,0,0,11234,16153-155504,970944.8192702205,40.6100023,-73.9208608,POINT (-73.9209 40.61),0,0,0,0,0,0,0,0,0,0,1,2,0,0,0,0,0,2,0,0,0,0,0,0,0,0,0,0,2,2,0,0,0,0,0,0,0,0,0,0,0,0,0,0,0,0,0,0,0,0,0,0,0,0,0,0,0,0,0,0,0,2,3,3,3,3,0,0,0,0,0,0,0,0,0,1,2,4,0,0,0,0,0,0,0,0,0,0,0,0,0,0,0,0,0,0
150,150,Lafayette Ave & Grand Ave,"325 Lafayette,Brooklyn, NY 11205",96.0,0.81,1,0,1,0,11205,54446-286216,276556.5714294095,40.688758,-73.96289959999999,POINT (-73.9629 40.6888),0,0,0,0,0,0,2,6,12,26,103,154,0,0,1,6,12,21,0,0,0,1,11,11,0,0,1,2,8,12,0,0,0,1,2,2,0,0,1,1,1,1,0,0,0,0,0,0,0,0,0,0,0,0,0,0,1,2,3,4,0,0,0,0,0,0,0,0,0,0,0,3,0,0,2,5,10,18,0,0,2,2,3,6,0,0,0,0,1,1,0,0,0,0,0,0
151,151,164 Park Place,"164 Park Place,Brooklyn, NY 11217",96.0,0.94,1,1,1,1,11217,19554-200744,840598.0233780058,40.677508,-73.973019,POINT (-73.973 40.6775),0,0,0,0,0,0,8,15,32,97,190,338,0,0,0,7,12,18,0,0,2,7,13,20,1,3,4,4,7,19,0,0,0,1,1,3,0,0,0,1,1,2,0,0,0,0,0,0,0,0,0,0,1,1,0,1,1,3,3,11,0,0,0,0,0,2,1,1,2,11,32,39,0,0,0,4,6,10,0,1,5,13,24,36,0,0,0,0,0,4,0,0,0,0,0,0
152,152,164 7th Avenue,"166 7th Avenue,Brooklyn, NY 11215",114.5,0.94,1,0,1,1,11215,7441-1994,964101.4706207402,40.672022,-73.97750400000001,POINT (-73.9775 40.672),0,0,0,0,0,0,8,12,19,69,172,315,0,1,1,9,16,23,0,0,3,8,15,20,0,1,3,7,17,22,0,0,0,1,1,4,0,0,0,0,0,0,0,0,0,0,0,0,0,0,0,0,0,0,0,0,0,0,3,6,0,0,0,0,0,0,1,2,5,12,20,33,0,0,0,0,5,6,0,0,1,7,18,36,0,0,0,0,0,4,0,0,0,0,0,0
153,153,Barclays Center,"620 Atlantic Avenue,Brooklyn, NY 11217",79.5,0.94,1,0,1,0,11217,17727-179364,548952.6613034046,40.684570799999996,-73.9775872,POINT (-73.9776 40.6846),0,0,0,0,0,0,0,3,10,105,174,302,0,0,5,9,17,22,0,2,2,11,14,18,0,0,1,7,11,22,0,0,2,9,10,15,0,0,0,0,1,1,0,0,0,0,0,0,0,0,0,1,1,1,2,3,4,7,8,15,0,1,2,2,3,7,0,2,6,20,31,71,0,0,1,5,7,15,0,0,2,10,23,40,0,0,0,1,4,10,0,0,0,0,0,0
154,154,7th Ave and 9th St,"444 Ninth St.,Brooklyn, NY 11215",100.0,0.94,1,0,1,0,11215,29856-255547,1522065.733416267,40.66679999999999,-73.98186199999999,POINT (-73.9819 40.6668),0,0,0,0,0,0,5,12,33,102,181,255,0,0,2,9,15,22,1,2,3,9,13,19,0,0,2,10,16,23,0,0,0,1,3,3,0,0,0,0,0,0,0,0,0,0,0,0,0,0,0,0,0,0,0,0,1,1,3,5,0,0,0,0,0,0,0,3,4,9,19,34,0,0,0,0,2,4,0,1,3,12,18,29,0,0,0,0,0,2,0,0,0,0,0,0
155,155,Flatbush Ave Atlantic Terminal,"139 Flatbush Ave,Brooklyn, NY 11217",108.5,0.94,1,0,1,0,11217,7704-13119,1241594.548221278,40.684570799999996,-73.9775872,POINT (-73.9776 40.6846),0,0,0,0,0,0,0,3,10,105,174,302,0,0,5,9,17,22,0,2,2,11,14,18,0,0,1,7,11,22,0,0,2,9,10,15,0,0,0,0,1,1,0,0,0,0,0,0,0,0,0,1,1,1,2,3,4,7,8,15,0,1,2,2,3,7,0,2,6,20,31,71,0,0,1,5,7,15,0,0,2,10,23,40,0,0,0,1,4,10,0,0,0,0,0,0
156,156,4th Ave. & Union St.,"225 4th Avenue,Brooklyn, NY 11215",108.5,0.94,1,0,1,0,11215,29719-254988,1436600.8566364837,40.676998,-73.983038,POINT (-73.983 40.677),0,0,0,0,0,0,4,13,33,95,186,320,0,0,1,3,11,27,0,0,1,3,11,25,0,0,1,4,7,18,0,0,1,3,4,8,0,0,0,0,0,1,0,0,0,0,0,0,0,0,0,0,0,1,1,1,1,1,1,9,0,0,0,0,0,1,0,0,6,12,28,40,0,0,1,4,5,9,1,1,5,17,32,50,0,0,3,4,6,6,0,0,0,0,0,0
157,157,1417 Kings Highway,"1417 Kings Highway,Brooklyn, NY 11229",114.0,0.94,1,0,1,0,11229,17224-171944,470048.2736449657,40.608736,-73.95866,POINT (-73.9587 40.6087),0,0,0,0,0,0,2,2,4,8,9,9,0,0,3,11,16,25,3,3,6,6,6,6,1,1,2,7,8,12,0,0,0,0,0,0,0,0,0,0,0,0,0,0,0,0,0,0,0,0,0,0,0,0,0,1,1,1,1,2,0,1,1,1,1,1,1,1,1,1,1,1,0,0,1,1,6,7,0,0,0,0,0,0,0,0,0,0,0,0,0,0,0,0,2,2
158,158,395 Flatbush Ave Extension,"395 Flatbush Ave Extension,D,Brooklyn, NY 11201",93.0,0.97,1,0,1,0,11201,21352-210984,467991.848900289,40.6892925,-73.9808341,POINT (-73.9808 40.6893),0,0,0,0,0,0,3,8,28,66,154,279,0,0,1,8,23,35,0,1,4,8,16,34,0,0,5,10,16,24,0,0,2,9,11,13,0,0,0,0,1,1,0,0,0,0,0,0,0,0,0,0,0,1,0,1,2,5,13,16,0,0,2,5,7,8,0,0,6,37,69,92,0,0,1,4,8,22,0,0,1,7,17,37,0,0,1,5,7,12,0,0,0,0,0,1
159,159,Target Brooklyn T-2850,"445 Gold St,Brooklyn, NY 11201",98.0,0.91,0,0,0,0,11201,28114-237585,223128.9592926495,40.691174,-73.98254,POINT (-73.9825 40.6912),0,0,0,0,0,0,0,2,14,85,145,250,0,0,2,7,27,45,0,0,2,10,18,33,0,0,2,9,15,26,0,1,1,3,10,12,0,0,0,1,1,1,0,0,0,0,0,0,0,0,0,0,0,0,0,1,2,7,9,17,2,2,4,5,6,8,0,0,17,43,65,93,0,1,1,3,12,24,0,0,1,4,18,31,0,0,3,6,10,10,0,0,0,0,0,1
160,160,4th Ave. & 11th St.-Park Slope,"476 4th Ave.,Brooklyn, NY 11215",104.0,0.94,1,0,1,0,11215,48170-261809,795803.1919573473,40.6693374,-73.98984200000001,POINT (-73.9898 40.6693),0,0,0,0,0,0,1,3,9,82,143,256,0,0,1,3,9,18,0,0,1,9,9,15,0,0,2,8,13,18,0,0,1,1,3,4,0,0,0,0,0,0,0,0,0,0,0,0,0,0,0,0,0,0,0,0,2,2,4,5,0,0,0,0,0,0,0,0,1,11,18,25,0,0,0,1,4,8,0,0,2,11,23,31,0,0,0,2,2,2,0,0,0,0,0,0
161,161,Hoyt St & Schermerhorn St,"45 Hoyt Street,D,Brooklyn, NY 11201",104.5,0.94,1,0,1,0,11201,57601-291413,797056.084371003,40.68909,-73.985985,POINT (-73.986 40.6891),0,0,0,0,0,0,6,7,31,121,220,306,0,0,2,8,28,45,1,1,3,12,31,40,0,1,1,10,21,26,0,0,1,2,10,13,0,0,0,0,1,1,0,0,0,0,0,0,0,0,0,0,0,0,0,1,3,7,11,16,0,0,2,6,6,7,0,0,39,69,95,110,0,0,0,2,9,17,0,1,6,15,27,40,0,0,2,7,8,12,0,0,0,0,1,1
162,162,Lam Group @ Sheraton Brooklyn,"228 Duffield st,Brooklyn, NY 11201",95.0,0.94,1,0,1,0,11201,25334-232868,895584.3890620256,40.6915504,-73.984484,POINT (-73.9845 40.6916),0,0,0,0,0,0,2,4,24,94,171,263,0,0,1,10,27,43,0,0,3,11,28,35,0,0,2,7,18,28,0,0,1,2,9,12,0,0,0,1,1,1,0,0,0,0,0,0,0,0,0,0,0,0,0,0,3,9,10,16,0,0,4,5,6,6,0,0,30,53,75,99,0,0,1,3,11,24,0,2,2,7,22,31,3,3,3,9,10,10,0,0,0,0,0,1
163,163,607 Brighton Beach Ave,"607 Brighton Beach Avenue,Brooklyn, NY 11235",104.0,0.97,1,1,1,1,11235,3438-93385,613400.9009995428,40.577833,-73.961207,POINT (-73.9612 40.5778),0,0,0,0,0,0,2,4,7,13,17,17,0,0,0,1,7,10,0,1,3,3,4,6,1,1,3,5,5,8,0,0,1,1,1,1,0,0,0,0,0,0,0,0,0,0,0,0,0,0,0,0,0,0,1,1,1,1,2,2,0,0,0,0,0,0,0,1,2,3,3,3,0,0,1,3,9,13,0,0,1,1,1,1,0,0,0,0,0,0,0,0,0,0,0,1
164,164,65th St & 18th Ave,"6423 18th Avenue,Brooklyn, NY 11204",115.5,0.94,1,0,1,1,11204,7921-91620,730680.3489464282,40.619194,-73.989914,POINT (-73.9899 40.6192),0,0,0,0,0,0,1,1,2,8,17,34,0,0,0,2,5,14,1,2,5,7,8,9,0,0,1,5,8,10,0,0,0,0,0,0,0,0,0,0,1,1,0,0,0,0,0,0,0,0,0,0,0,0,0,0,1,2,2,4,1,1,1,1,1,1,0,0,6,11,11,11,0,0,0,0,3,4,0,0,0,0,0,0,0,0,0,0,0,0,0,0,0,0,0,0
165,165,Cropsey Ave & Hart Place,"3035 Cropsey Ave,Brooklyn, NY 11224",84.0,0.94,1,0,1,0,11224,8131-96060,870243.4880461105,40.5812855,-73.9854027,POINT (-73.9854 40.5813),0,0,0,0,0,0,1,1,3,6,12,30,0,0,0,0,2,3,0,0,0,0,0,0,0,0,0,0,0,1,0,0,0,0,0,0,0,0,0,0,1,2,0,0,0,0,0,0,0,0,0,0,0,1,0,0,0,0,1,4,0,0,0,0,0,1,0,0,0,0,0,0,0,0,0,1,3,8,0,0,0,0,1,3,0,0,0,2,2,2,0,0,0,0,0,11
166,166,1971 86th Street,"1971 86th Street,Brooklyn, NY 11214",106.0,0.94,1,0,1,1,11214,13983-114731,399417.25740405545,40.604988,-73.998554,POINT (-73.9986 40.605),0,0,0,0,0,0,1,4,9,12,17,36,0,0,0,4,8,13,0,0,1,3,6,9,2,2,2,4,10,12,0,0,0,0,0,0,0,0,0,1,1,1,0,0,0,0,0,0,0,0,0,0,0,0,0,1,1,2,3,4,0,0,0,1,1,1,0,1,1,1,1,1,0,0,0,0,3,5,0,0,0,0,0,0,0,0,0,0,0,0,0,0,0,0,0,0
167,167,Caesar's Bay Shopping Center,"8973 Bay Parkway,Brooklyn, NY 11214",122.5,0.94,1,0,1,0,11214,23267-228864,425281.34671111335,40.595252,-74.000039,POINT (-74 40.5953),0,0,0,0,0,0,3,3,5,5,5,16,0,0,0,0,2,4,0,1,1,1,1,6,0,0,0,0,2,7,0,0,0,0,0,0,0,0,0,0,0,1,0,0,0,0,0,0,0,0,0,0,0,0,0,0,0,0,0,1,0,0,1,1,1,1,0,0,1,1,1,1,0,0,1,2,3,3,0,0,0,0,0,1,0,0,0,0,0,0,0,0,0,0,0,0
168,168,514 86th St,"514 86th Street,Brooklyn, NY 11209",105.0,0.94,1,0,1,1,11209,11808-106389,202733.99889191272,40.621109999999994,-74.02591,POINT (-74.0259 40.6211),0,0,0,0,0,0,1,6,17,39,63,69,0,0,0,2,6,7,0,0,2,6,9,11,0,0,1,5,10,10,0,0,0,0,0,0,0,0,0,0,0,0,0,0,0,0,0,0,0,0,0,0,0,0,0,0,0,1,2,3,0,0,0,0,0,0,0,0,6,7,7,7,0,0,0,1,3,6,0,0,1,1,3,4,0,0,0,0,0,0,0,0,0,0,0,0
169,169,Bay Ridge Pkwy & 3rd Ave,"7419 3rd Avenue,Brooklyn, NY 11209",106.5,0.94,1,0,1,1,11209,2864-92970,632694.8575085052,40.631546,-74.027597,POINT (-74.0276 40.6315),0,0,0,0,0,0,1,1,11,25,35,45,0,0,0,2,3,4,0,0,1,1,2,5,0,0,0,0,0,2,0,0,0,0,1,1,0,0,0,0,0,2,0,0,0,0,0,0,0,0,0,0,0,0,0,0,0,1,2,3,0,0,0,0,0,0,0,0,0,1,1,4,0,0,0,0,1,5,0,0,0,0,1,1,0,0,0,0,0,0,0,0,0,0,0,1
170,170,3rd Ave & 92nd St,"9202 Third Avenue,Brooklyn, NY 11209",114.0,0.94,1,0,1,0,11209,7646-27128,373885.7669174799,40.619261,-74.03295,POINT (-74.0329 40.6193),0,0,0,0,0,0,3,5,12,39,61,65,0,0,1,5,6,6,1,1,4,6,10,10,0,1,2,5,7,10,0,0,0,0,0,0,0,0,0,0,0,0,0,0,0,0,0,0,0,0,0,0,0,0,0,0,0,1,2,2,0,0,0,0,0,0,0,0,0,2,7,7,0,0,0,2,2,9,0,0,0,4,4,7,0,0,0,0,0,0,0,0,0,0,0,0
171,171,Smith St & Wyckoff St,"164 Smith Street,Brooklyn, NY 11201",98.5,0.94,1,0,1,0,11201,11807-106578,868646.2024597706,40.686221,-73.99095400000002,POINT (-73.991 40.6862),0,0,0,0,0,0,7,15,44,129,226,321,0,0,8,12,21,31,1,1,6,14,26,41,1,1,3,7,14,29,0,0,0,3,3,9,0,0,0,0,0,1,0,0,0,0,0,0,0,0,0,0,0,0,1,1,1,1,7,12,0,0,0,1,3,6,2,6,18,51,97,107,0,0,1,4,5,13,0,0,1,14,28,43,0,0,0,2,3,10,0,0,1,1,1,1
172,172,Court St & Dean St,"167 Court Street,Brooklyn, NY 11201",98.0,0.94,1,0,1,0,11201,7595-14074,758329.9484233421,40.692464,-73.99120099999998,POINT (-73.9912 40.6925),0,0,0,0,0,0,5,9,35,105,205,282,0,1,4,14,26,35,0,3,10,17,25,33,0,1,4,11,17,22,0,0,1,2,4,5,0,0,0,0,0,1,0,0,0,0,0,0,0,0,0,0,0,0,0,1,3,5,10,14,0,0,0,1,5,6,3,3,4,36,87,98,0,0,1,3,10,27,3,5,7,17,25,30,0,0,0,3,8,10,0,0,0,0,2,5
173,173,Gold St & Johnson Street,"309 Gold St,Brooklyn, NY 11201",96.0,0.94,1,0,1,0,11201,24401-237441,474077.63421998854,40.694973600000004,-73.98283909999998,POINT (-73.9828 40.695),0,0,0,0,0,0,2,4,5,32,81,212,0,0,3,16,20,30,0,0,2,4,11,27,0,0,0,1,10,23,0,0,0,1,2,7,1,1,1,1,1,1,0,0,0,0,0,0,0,0,0,0,0,0,0,0,0,3,9,13,0,0,0,2,5,7,0,0,0,2,40,68,0,1,2,9,17,27,0,0,0,2,6,25,0,0,2,6,7,10,0,0,0,0,0,0
174,174,6 Metro Tech at Jay Street,"6 Metro Tech,Brooklyn, NY 11201",103.0,0.92,1,0,1,0,11201,11809-106577,423354.2164662925,40.694047,-73.986783,POINT (-73.9868 40.694),0,0,0,0,0,0,2,4,23,67,154,267,0,1,9,16,23,37,0,1,1,13,23,31,0,0,1,6,13,27,0,0,0,1,3,5,0,0,0,1,1,1,0,0,0,0,0,0,0,0,0,0,0,0,0,0,2,7,11,14,0,0,0,4,6,7,0,0,3,40,59,97,0,1,1,6,17,26,0,0,0,8,20,26,0,0,1,6,8,10,0,0,0,0,0,4
175,175,Court St & Joralemon,"50 Court Street,Brooklyn, NY 11201",107.5,0.94,1,0,1,0,11201,7358-1369,871644.4382332956,40.692464,-73.99120099999998,POINT (-73.9912 40.6925),0,0,0,0,0,0,5,9,35,105,205,282,0,1,4,14,26,35,0,3,10,17,25,33,0,1,4,11,17,22,0,0,1,2,4,5,0,0,0,0,0,1,0,0,0,0,0,0,0,0,0,0,0,0,0,1,3,5,10,14,0,0,0,1,5,6,3,3,4,36,87,98,0,0,1,3,10,27,3,5,7,17,25,30,0,0,0,3,8,10,0,0,0,0,2,5
176,176,134 Montague Street,"134 Montague Street,Brooklyn, NY 11201",107.0,0.94,1,0,1,1,11201,844-169565,530045.949830665,40.694584000000006,-73.99398000000001,POINT (-73.994 40.6946),0,0,0,0,0,0,1,3,10,71,146,253,0,0,3,9,22,30,0,0,2,11,17,26,1,1,4,7,13,18,0,0,0,2,2,4,0,0,0,0,0,1,0,0,0,0,0,0,0,0,0,0,0,0,0,0,1,4,8,12,0,0,0,0,1,3,0,0,1,7,30,80,0,0,0,2,16,25,0,0,2,11,20,28,0,0,0,0,1,9,0,0,1,3,4,4
